{
  "urlPrefix" : "contentdocument",
  "appPageId" : "ff1fa3cf-b223-420d-b7b3-72267d512e25",
  "routeType" : "detail-069",
  "pageAccess" : "UseParent",
  "label" : "File Detail",
  "id" : "8b7e7310-a0e7-4bea-b5c5-f0ccf8be16f8",
  "type" : "route"
}