{
  "urlPrefix" : "contentdocument",
  "appPageId" : "ff1fa3cf-b223-420d-b7b3-72267d512e25",
  "routeType" : "relatedlist-069",
  "pageAccess" : "UseParent",
  "label" : "File Related List",
  "id" : "ea66d35a-b4d4-43fc-9a04-416d40cfbd68",
  "type" : "route"
}