{
  "urlPrefix" : "",
  "appPageId" : "ff1fa3cf-b223-420d-b7b3-72267d512e25",
  "routeType" : "home",
  "pageAccess" : "UseParent",
  "label" : "Home",
  "id" : "53f993fd-1465-42ca-84df-ea397b8fcb87",
  "type" : "route"
}