{
  "urlPrefix" : "recordlist",
  "appPageId" : "ff1fa3cf-b223-420d-b7b3-72267d512e25",
  "routeType" : "list",
  "pageAccess" : "UseParent",
  "label" : "Record List",
  "id" : "7ffded58-26c3-45e4-88f6-4104a4d28f5b",
  "type" : "route"
}