{
  "urlPrefix" : "SelfRegister",
  "appPageId" : "2518aa5d-028f-4fa6-aee1-6b509990e4d9",
  "routeType" : "self-register",
  "pageAccess" : "UseParent",
  "label" : "Register",
  "id" : "2f6fe40b-4679-47fb-ba04-a7285d512138",
  "type" : "route"
}