{
  "urlPrefix" : "report",
  "appPageId" : "ff1fa3cf-b223-420d-b7b3-72267d512e25",
  "routeType" : "relatedlist-00O",
  "pageAccess" : "UseParent",
  "label" : "Report Related List",
  "id" : "fc27f224-639e-4e86-a701-3831cd4dc382",
  "type" : "route"
}