{
  "urlPrefix" : "sfdcpage",
  "appPageId" : "ff1fa3cf-b223-420d-b7b3-72267d512e25",
  "routeType" : "sfdcpage",
  "pageAccess" : "UseParent",
  "label" : "Sfdc Page",
  "id" : "64f57fca-4a0b-460e-9dc8-e2e38e99551d",
  "type" : "route"
}