{
  "urlPrefix" : "toparticles",
  "appPageId" : "ff1fa3cf-b223-420d-b7b3-72267d512e25",
  "routeType" : "top-articles",
  "pageAccess" : "UseParent",
  "label" : "Top Articles",
  "id" : "f035d272-12e9-49c2-817b-257010376828",
  "type" : "route"
}