{
  "urlPrefix" : "topic",
  "appPageId" : "ff1fa3cf-b223-420d-b7b3-72267d512e25",
  "routeType" : "topic",
  "pageAccess" : "UseParent",
  "label" : "Topic Detail",
  "id" : "da6032c5-d6f4-4402-ab60-3947b980782c",
  "type" : "route"
}