{
  "urlPrefix" : "topiccatalog",
  "appPageId" : "ff1fa3cf-b223-420d-b7b3-72267d512e25",
  "routeType" : "topic-catalog",
  "pageAccess" : "UseParent",
  "label" : "Topic Catalog",
  "id" : "8c9a7a1a-2fd6-47a0-9a42-67b7132d9fde",
  "type" : "route"
}