{
  "urlPrefix" : "profile",
  "appPageId" : "ff1fa3cf-b223-420d-b7b3-72267d512e25",
  "routeType" : "list-005",
  "pageAccess" : "UseParent",
  "label" : "User List",
  "id" : "c1171dc4-7842-4077-8263-775293e63e6d",
  "type" : "route"
}