{
  "urlPrefix" : "settings",
  "appPageId" : "ff1fa3cf-b223-420d-b7b3-72267d512e25",
  "routeType" : "usersettings",
  "pageAccess" : "UseParent",
  "label" : "User Settings",
  "id" : "d77934d7-dfd8-4d54-a4fe-0687cacac723",
  "type" : "route"
}