{
  "themeLayoutType" : "Login",
  "viewType" : "login-error",
  "appPageId" : "88f149a1-68ea-43c0-bc80-d1e4edf61f7e",
  "componentName" : "siteforce:sldsOneColLayout",
  "label" : "Login Error",
  "id" : "cb68318c-cddd-4ad1-956a-ec3108890e95",
  "type" : "view",
  "regions" : [ {
    "regionName" : "header",
    "id" : "1dd88898-f4a8-42be-8f11-42be746a7ba2",
    "type" : "region",
    "components" : [ ]
  }, {
    "regionName" : "content",
    "id" : "00bd7ea8-39ae-41fa-b08b-5944165fff34",
    "type" : "region",
    "components" : [ {
      "componentName" : "forceCommunity:richTextInline",
      "componentAttributes" : {
        "richTextValue" : "<div style=\"text-align: center;\">Invalid Page</div>"
      },
      "renderPriority" : "NEUTRAL",
      "renditionMap" : { },
      "id" : "8a27809e-bbca-4bec-baf0-e826f17113a1",
      "type" : "component",
      "renditions" : [ ]
    } ]
  }, {
    "regionName" : "footer",
    "id" : "9bbe08ff-a7e9-4e3f-b321-995cf3779f01",
    "type" : "region",
    "components" : [ ]
  }, {
    "regionName" : "sfdcHiddenRegion",
    "id" : "00e88a61-e859-4a84-89d2-47c4bb98e53d",
    "type" : "region",
    "components" : [ {
      "componentName" : "forceCommunity:seoAssistant",
      "componentAttributes" : {
        "metaTags" : "",
        "description" : "",
        "title" : "Login Error"
      },
      "renderPriority" : "NEUTRAL",
      "renditionMap" : { },
      "id" : "7d26f66b-46b1-4f42-ae6f-1560ebd19579",
      "type" : "component",
      "renditions" : [ ]
    } ]
  } ]
}