{
  "themeLayoutType" : "Inner",
  "viewType" : "messages",
  "appPageId" : "1df13a06-cd43-4a80-8668-bc927ea97379",
  "componentName" : "siteforce:sldsOneColLayout",
  "label" : "Messages",
  "id" : "5cf6af0a-5e87-4f32-9e3e-779463c9275e",
  "type" : "view",
  "regions" : [ {
    "regionName" : "content",
    "id" : "81e08698-d614-4995-bb50-ae5610eacadd",
    "type" : "region",
    "components" : [ {
      "componentName" : "forceChatter:messages",
      "componentAttributes" : { },
      "renderPriority" : "NEUTRAL",
      "renditionMap" : { },
      "id" : "68d83c0a-2600-4524-8a83-dc2aea7fd24b",
      "type" : "component",
      "renditions" : [ ]
    } ]
  }, {
    "regionName" : "sfdcHiddenRegion",
    "id" : "94b76f73-ba97-4d27-a384-5103d7d7b399",
    "type" : "region",
    "components" : [ {
      "componentName" : "forceCommunity:seoAssistant",
      "componentAttributes" : {
        "metaTags" : "",
        "description" : "",
        "title" : ""
      },
      "renderPriority" : "NEUTRAL",
      "renditionMap" : { },
      "id" : "92b6cc92-7d30-417f-8196-82f079d59b54",
      "type" : "component",
      "renditions" : [ ]
    } ]
  } ]
}