{
  "themeLayoutType" : "Inner",
  "viewType" : "feeditem",
  "appPageId" : "1df13a06-cd43-4a80-8668-bc927ea97379",
  "componentName" : "siteforce:sldsTwoCol84Layout",
  "label" : "Question Detail",
  "id" : "9d8dcdf1-0cf8-4b41-8500-c7c4ec874089",
  "type" : "view",
  "regions" : [ {
    "regionName" : "header",
    "id" : "abc546d6-6653-466e-b310-17dd5b5d2d76",
    "type" : "region",
    "components" : [ {
      "componentName" : "forceCommunity:headline",
      "componentAttributes" : {
        "topicId" : "{!topicId}",
        "pageType" : "discussion",
        "bannerTextWithKnowledge" : "Explore other <a href=\"javascript:void(0)\" class=\"headlineArticles\">articles</a> and <a href=\"javascript:void(0)\" class=\"headlineDiscussions\">discussions</a> on this topic.",
        "searchTerm" : "{!searchString}",
        "bannerTextWithoutKnowledge" : "Explore other <a href=\"javascript:void(0)\" class=\"headlineDiscussions\">discussions</a> on this topic.",
        "bannerText" : "",
        "title" : "Welcome!",
        "uniqueNameOrId" : "{!recordId}",
        "showSubTopics" : "true"
      },
      "renderPriority" : "NEUTRAL",
      "renditionMap" : { },
      "id" : "80e3aeb9-6e0d-43f5-834b-5944e53006e2",
      "type" : "component",
      "renditions" : [ ]
    } ]
  }, {
    "regionName" : "content",
    "id" : "0f50baae-07e0-48f8-bcf7-b2e97ae53b7f",
    "type" : "region",
    "components" : [ {
      "componentName" : "forceCommunity:feedItemDetail",
      "componentAttributes" : {
        "id" : "{!feedItemId}"
      },
      "renderPriority" : "NEUTRAL",
      "renditionMap" : { },
      "id" : "c1105cce-fe5b-4030-be78-609be3019f90",
      "type" : "component",
      "renditions" : [ ]
    } ]
  }, {
    "regionName" : "sidebar",
    "id" : "6bd6d2b6-02ad-4abe-bcb7-e3d90b69fcf9",
    "type" : "region",
    "components" : [ {
      "componentName" : "selfService:similarQuestions",
      "componentAttributes" : {
        "contextObjectId" : "{!recordId}",
        "title" : "Related Questions",
        "showViewCounts" : "true",
        "numberOfItems" : "5"
      },
      "renderPriority" : "NEUTRAL",
      "renditionMap" : { },
      "id" : "c02b4729-19ef-4d92-bbb5-dd2ecdd47a1c",
      "type" : "component",
      "renditions" : [ ]
    }, {
      "componentName" : "forceCommunity:recommendations",
      "componentAttributes" : {
        "channel" : "DefaultChannel",
        "title" : ""
      },
      "renderPriority" : "NEUTRAL",
      "renditionMap" : { },
      "id" : "65aad4de-986b-4a9a-956b-a4fb5017a37d",
      "type" : "component",
      "renditions" : [ ]
    } ]
  }, {
    "regionName" : "footer",
    "id" : "c3156a58-9df6-4c12-9285-956bc1145f9b",
    "type" : "region",
    "components" : [ {
      "componentName" : "siteforce:napiliFooter",
      "componentAttributes" : {
        "buttonBorderColor" : "",
        "buttonTwoBgHoverColor" : "",
        "contactSupportLabel" : "Contact Support",
        "buttonTextHoverColor" : "",
        "askCommunityLabel" : "Ask a Question",
        "buttonTwoBgColor" : "",
        "buttonTwoTextHoverColor" : "",
        "buttonBgHoverColor" : "",
        "satisfactionPromptLabel" : "Did we help to answer your question?",
        "showTopics" : "true",
        "buttonTextColor" : "",
        "isPublisherDeflectionEnabled" : "true",
        "buttonTwoBorderColor" : "",
        "isAskFollowPromptEnabled" : "true",
        "isIncludeArticlesEnabled" : "false",
        "isIncludeDiscussionsEnabled" : "true",
        "headerLabel" : "Don't see what you're looking for?",
        "buttonTwoTextColor" : "",
        "followUpPromptLabel" : "Can we close your question?",
        "isInitialSatisfactionPromptEnabled" : "true",
        "maxSuggestions" : "5",
        "buttonTwoRadius" : "0",
        "buttonRadius" : "0",
        "buttonBgColor" : "",
        "showDetails" : "false",
        "confirmationMessage" : "Got it!"
      },
      "renderPriority" : "NEUTRAL",
      "renditionMap" : { },
      "id" : "19827bff-d90f-477a-b7fa-2f584a9c6fd9",
      "type" : "component",
      "renditions" : [ ]
    } ]
  }, {
    "regionName" : "sfdcHiddenRegion",
    "id" : "2c3080d8-8cd7-4f59-813b-0e3638f991dc",
    "type" : "region",
    "components" : [ {
      "componentName" : "forceCommunity:seoAssistant",
      "componentAttributes" : {
        "metaTags" : "",
        "description" : "",
        "title" : "{!Record.Title}"
      },
      "renderPriority" : "NEUTRAL",
      "renditionMap" : { },
      "id" : "fff0d06d-e2fd-4e7b-bd0c-70872825c59b",
      "type" : "component",
      "renditions" : [ ]
    } ]
  } ]
}