{
  "themeLayoutType" : "Inner",
  "viewType" : "detail",
  "appPageId" : "1df13a06-cd43-4a80-8668-bc927ea97379",
  "componentName" : "siteforce:sldsOneColLayout",
  "label" : "Record Detail",
  "id" : "9a8db41e-79f9-420d-9842-1fb8373a5d8c",
  "type" : "view",
  "regions" : [ {
    "regionName" : "header",
    "id" : "f765b80a-22a3-4173-8788-023f584459be",
    "type" : "region",
    "components" : [ ]
  }, {
    "regionName" : "content",
    "id" : "ce08dba8-dba2-437b-86fe-bffb257ae58c",
    "type" : "region",
    "components" : [ {
      "componentName" : "forceCommunity:recordHeadline",
      "componentAttributes" : {
        "recordId" : "{!recordId}"
      },
      "renderPriority" : "NEUTRAL",
      "renditionMap" : { },
      "id" : "d3eda67d-0a6f-4d85-b935-23c320110848",
      "type" : "component",
      "renditions" : [ ]
    }, {
      "componentName" : "forceCommunity:recordHomeTabs",
      "componentAttributes" : {
        "recordId" : "{!recordId}",
        "relatedTabLabel" : "Related",
        "detailsTabLabel" : "Details",
        "discussionsTabLabel" : "Feed",
        "timelineTabLabel" : "Activity",
        "tab1Type" : "details",
        "tab4Type" : "none",
        "tab3Type" : "chatter",
        "tab2Type" : "related"
      },
      "renderPriority" : "NEUTRAL",
      "renditionMap" : { },
      "id" : "c00b5efd-5f44-4123-9d6a-e8fde6756302",
      "type" : "component",
      "renditions" : [ ]
    } ]
  }, {
    "regionName" : "footer",
    "id" : "570a590e-40a7-4d61-a2c1-2cef08eedf6e",
    "type" : "region",
    "components" : [ ]
  }, {
    "regionName" : "sfdcHiddenRegion",
    "id" : "83ed97b8-a0f0-485e-906e-87b8da855841",
    "type" : "region",
    "components" : [ {
      "componentName" : "forceCommunity:seoAssistant",
      "componentAttributes" : {
        "metaTags" : "",
        "description" : "",
        "title" : "{!Record._Object}: {!Record._Title}"
      },
      "renderPriority" : "NEUTRAL",
      "renditionMap" : { },
      "id" : "e2d96189-c58b-484e-92de-6c22994f4854",
      "type" : "component",
      "renditions" : [ ]
    } ]
  } ]
}