{
  "themeLayoutType" : "Inner",
  "viewType" : "list-00O",
  "appPageId" : "1df13a06-cd43-4a80-8668-bc927ea97379",
  "componentName" : "siteforce:sldsOneColLayout",
  "label" : "Report List",
  "id" : "51446c63-bf65-47cb-a300-6d0943ab52a3",
  "type" : "view",
  "regions" : [ {
    "regionName" : "header",
    "id" : "03c71657-f77b-4266-bba7-64cf3b622a57",
    "type" : "region",
    "components" : [ ]
  }, {
    "regionName" : "content",
    "id" : "6e3cf9a3-e357-4458-91e4-23d83638b275",
    "type" : "region",
    "components" : [ {
      "componentName" : "forceCommunity:reportList",
      "componentAttributes" : { },
      "renderPriority" : "NEUTRAL",
      "renditionMap" : { },
      "id" : "d32361b3-42ba-416e-879b-d7295ea0299d",
      "type" : "component",
      "renditions" : [ ]
    } ]
  }, {
    "regionName" : "footer",
    "id" : "2d9ab1f0-9c12-4ade-8e82-8a0d8e24791b",
    "type" : "region",
    "components" : [ ]
  }, {
    "regionName" : "sfdcHiddenRegion",
    "id" : "60518259-7a54-4080-9152-0724c15b440f",
    "type" : "region",
    "components" : [ {
      "componentName" : "forceCommunity:seoAssistant",
      "componentAttributes" : {
        "metaTags" : "",
        "description" : "",
        "title" : ""
      },
      "renderPriority" : "NEUTRAL",
      "renditionMap" : { },
      "id" : "10a5c451-1be5-41fe-977c-9e0b704f30dc",
      "type" : "component",
      "renditions" : [ ]
    } ]
  } ]
}