{
  "themeLayoutType" : "Inner",
  "viewType" : "detail-0Fq",
  "appPageId" : "1df13a06-cd43-4a80-8668-bc927ea97379",
  "componentName" : "siteforce:sldsOneColLayout",
  "label" : "Stream Detail",
  "id" : "bbc2282e-61e3-4af5-a589-74f1a56cebd5",
  "type" : "view",
  "regions" : [ {
    "regionName" : "header",
    "id" : "a6d6c0f0-b79d-49bf-9a91-10a328dba6bc",
    "type" : "region",
    "components" : [ ]
  }, {
    "regionName" : "content",
    "id" : "478e9b7c-aad9-4a26-9249-3e53b92f0356",
    "type" : "region",
    "components" : [ {
      "componentName" : "forceCommunity:streamDetail",
      "componentAttributes" : {
        "id" : "{!recordId}"
      },
      "renderPriority" : "NEUTRAL",
      "renditionMap" : { },
      "id" : "007abfc1-09f3-475a-8eea-5f0d98e39b5d",
      "type" : "component",
      "renditions" : [ ]
    } ]
  }, {
    "regionName" : "footer",
    "id" : "393c629c-5425-4155-b970-36081304e261",
    "type" : "region",
    "components" : [ ]
  }, {
    "regionName" : "sfdcHiddenRegion",
    "id" : "2649a096-56fe-43c9-9b51-e08506f9264f",
    "type" : "region",
    "components" : [ {
      "componentName" : "forceCommunity:seoAssistant",
      "componentAttributes" : {
        "metaTags" : "",
        "description" : "",
        "title" : ""
      },
      "renderPriority" : "NEUTRAL",
      "renditionMap" : { },
      "id" : "c005f203-9747-4777-b1bb-d233fe780457",
      "type" : "component",
      "renditions" : [ ]
    } ]
  } ]
}