{
  "themeLayoutType" : "Inner",
  "viewType" : "list-0Fq",
  "appPageId" : "1df13a06-cd43-4a80-8668-bc927ea97379",
  "componentName" : "siteforce:sldsOneColLayout",
  "label" : "Stream List",
  "id" : "6148dc5c-c131-4d33-b67b-c367330d6ec9",
  "type" : "view",
  "regions" : [ {
    "regionName" : "content",
    "id" : "ff481846-834a-4f77-b3da-b8595fbbdbf2",
    "type" : "region",
    "components" : [ {
      "componentName" : "forceCommunity:streamList",
      "componentAttributes" : { },
      "renderPriority" : "NEUTRAL",
      "renditionMap" : { },
      "id" : "79c771d9-66c5-423a-a851-3ec1ab6edbe2",
      "type" : "component",
      "renditions" : [ ]
    } ]
  }, {
    "regionName" : "sfdcHiddenRegion",
    "id" : "6295467d-8044-405f-96c6-cd48852680c5",
    "type" : "region",
    "components" : [ {
      "componentName" : "forceCommunity:seoAssistant",
      "componentAttributes" : {
        "metaTags" : "",
        "description" : "",
        "title" : ""
      },
      "renderPriority" : "NEUTRAL",
      "renditionMap" : { },
      "id" : "96bda617-f641-4eec-ac87-de9378fad52f",
      "type" : "component",
      "renditions" : [ ]
    } ]
  } ]
}