{
  "themeLayoutType" : "Inner",
  "viewType" : "topic",
  "appPageId" : "1df13a06-cd43-4a80-8668-bc927ea97379",
  "componentName" : "siteforce:sldsTwoCol84SidebarFeaturedLayout",
  "label" : "Topic Detail",
  "id" : "54db10ac-b14e-4971-accd-6ca6963f5f73",
  "type" : "view",
  "regions" : [ {
    "regionName" : "header",
    "id" : "f19678a2-38df-4035-973f-c379e94c7e90",
    "type" : "region",
    "components" : [ {
      "componentName" : "forceCommunity:headline",
      "componentAttributes" : {
        "topicId" : "{!recordId}",
        "pageType" : "topic",
        "bannerTextWithKnowledge" : "Explore other <a href=\"javascript:void(0)\" class=\"headlineArticles\">articles</a> and <a href=\"javascript:void(0)\" class=\"headlineDiscussions\">discussions</a> on this topic.",
        "searchTerm" : "{!searchString}",
        "bannerTextWithoutKnowledge" : "Explore other <a href=\"javascript:void(0)\" class=\"headlineDiscussions\">discussions</a> on this topic.",
        "bannerText" : "",
        "title" : "Welcome!",
        "uniqueNameOrId" : "",
        "showSubTopics" : "true"
      },
      "renderPriority" : "NEUTRAL",
      "renditionMap" : { },
      "id" : "7fc46795-f3ad-4357-81c4-10e9563110de",
      "type" : "component",
      "renditions" : [ ]
    } ]
  }, {
    "regionName" : "featured",
    "id" : "f81c0f5b-da1e-453d-ad5f-37df51913ef6",
    "type" : "region",
    "components" : [ {
      "componentName" : "forceCommunity:topicDescription",
      "componentAttributes" : {
        "topicId" : "{!recordId}",
        "title" : "Description"
      },
      "renderPriority" : "NEUTRAL",
      "renditionMap" : { },
      "id" : "099878b1-781c-423d-a933-0b17851f38f6",
      "type" : "component",
      "renditions" : [ ]
    }, {
      "componentName" : "forceCommunity:topicMetrics",
      "componentAttributes" : {
        "topicId" : "{!recordId}",
        "showArticles" : "true",
        "showFollowers" : "true",
        "showTalkingAbout" : "true",
        "showPosts" : "true"
      },
      "renderPriority" : "NEUTRAL",
      "renditionMap" : { },
      "id" : "84809659-a277-479e-b4c7-2985047edeb2",
      "type" : "component",
      "renditions" : [ ]
    }, {
      "componentName" : "forceCommunity:askCommunity",
      "componentAttributes" : {
        "uneditableTopics" : "false",
        "isAskFollowPromptEnabled" : "true",
        "buttonBorderColor" : "",
        "isIncludeArticlesEnabled" : "false",
        "isIncludeDiscussionsEnabled" : "true",
        "followUpPromptLabel" : "Can we close your question?",
        "label" : "Ask a Question",
        "buttonTextHoverColor" : "",
        "isInitialSatisfactionPromptEnabled" : "true",
        "buttonAlignment" : "center",
        "maxSuggestions" : "5",
        "buttonMaxWidth" : "100",
        "buttonBgHoverColor" : "",
        "buttonRadius" : "0",
        "satisfactionPromptLabel" : "Did we help to answer your question?",
        "showTopics" : "true",
        "buttonTextColor" : "",
        "isPublisherDeflectionEnabled" : "true",
        "buttonBgColor" : "",
        "showDetails" : "false",
        "confirmationMessage" : "Got it!"
      },
      "renderPriority" : "NEUTRAL",
      "renditionMap" : { },
      "id" : "2f19662a-05b0-4262-b453-3084c5d29267",
      "type" : "component",
      "renditions" : [ ]
    }, {
      "componentName" : "forceCommunity:follow",
      "componentAttributes" : {
        "recordId" : "{!recordId}",
        "buttonAlignment" : "center",
        "buttonMaxWidth" : "100",
        "buttonBorderColor" : "",
        "showNotificationMenu" : "true",
        "buttonBgHoverColor" : "",
        "buttonRadius" : "0",
        "buttonTextColor" : "",
        "buttonTextHoverColor" : "",
        "buttonBgColor" : ""
      },
      "renderPriority" : "NEUTRAL",
      "renditionMap" : { },
      "id" : "36d645b4-2550-46fa-bfef-9fd6bf8c8e3e",
      "type" : "component",
      "renditions" : [ ]
    } ]
  }, {
    "regionName" : "content",
    "id" : "77bb5df2-ef5f-40a0-80ff-37dbe4ad55f7",
    "type" : "region",
    "components" : [ {
      "componentName" : "forceCommunity:resultsList",
      "componentAttributes" : {
        "topicId" : "{!recordId}",
        "articleTabLabel" : "Articles",
        "searchTerm" : "{!searchString}",
        "discussionTabLabel" : "Discussions",
        "showArticleTab" : "true",
        "articleListPageSize" : "10",
        "showCompactFeedInDiscussion" : "true",
        "defaultSortOrderCompactFeed" : "Relevance",
        "defaultSortOrderFullFeed" : "Relevance",
        "class" : "clean",
        "activeTab" : "{!selectedTab}"
      },
      "renderPriority" : "NEUTRAL",
      "renditionMap" : { },
      "id" : "5bd1d4da-060c-4b3e-80a3-58a30b560a2c",
      "type" : "component",
      "renditions" : [ ]
    } ]
  }, {
    "regionName" : "sidebar",
    "id" : "927a2fe5-fa21-45ad-841b-3b53271cc8cf",
    "type" : "region",
    "components" : [ {
      "componentName" : "forceCommunity:relatedTopics",
      "componentAttributes" : {
        "topicId" : "{!recordId}",
        "title" : "Related Topics",
        "showTopicsMetric" : "true"
      },
      "renderPriority" : "NEUTRAL",
      "renditionMap" : { },
      "id" : "d68f6dea-8b8b-4da6-9e86-4d1967f8ab5b",
      "type" : "component",
      "renditions" : [ ]
    }, {
      "componentName" : "forceCommunity:knowledgeablePeople",
      "componentAttributes" : {
        "topicId" : "{!recordId}",
        "title" : "Knowledgeable People"
      },
      "renderPriority" : "NEUTRAL",
      "renditionMap" : { },
      "id" : "eaf40dd2-9ae7-49a8-90b1-3db264f9945f",
      "type" : "component",
      "renditions" : [ ]
    } ]
  }, {
    "regionName" : "footer",
    "id" : "597685a1-f651-4b5d-a9bf-8b042617f8d3",
    "type" : "region",
    "components" : [ {
      "componentName" : "siteforce:napiliFooter",
      "componentAttributes" : {
        "buttonBorderColor" : "",
        "buttonTwoBgHoverColor" : "",
        "contactSupportLabel" : "Contact Support",
        "buttonTextHoverColor" : "",
        "askCommunityLabel" : "Ask a Question",
        "buttonTwoBgColor" : "",
        "buttonTwoTextHoverColor" : "",
        "buttonBgHoverColor" : "",
        "satisfactionPromptLabel" : "Did we help to answer your question?",
        "showTopics" : "true",
        "buttonTextColor" : "",
        "isPublisherDeflectionEnabled" : "true",
        "buttonTwoBorderColor" : "",
        "isAskFollowPromptEnabled" : "true",
        "isIncludeArticlesEnabled" : "false",
        "isIncludeDiscussionsEnabled" : "true",
        "headerLabel" : "Don't see what you're looking for?",
        "buttonTwoTextColor" : "",
        "followUpPromptLabel" : "Can we close your question?",
        "isInitialSatisfactionPromptEnabled" : "true",
        "maxSuggestions" : "5",
        "buttonTwoRadius" : "0",
        "buttonRadius" : "0",
        "buttonBgColor" : "",
        "showDetails" : "false",
        "confirmationMessage" : "Got it!"
      },
      "renderPriority" : "NEUTRAL",
      "renditionMap" : { },
      "id" : "aa78b9f8-0149-4af2-8450-c6d9626813d0",
      "type" : "component",
      "renditions" : [ ]
    } ]
  }, {
    "regionName" : "sfdcHiddenRegion",
    "id" : "abf262a5-0930-4d2d-9297-e3d561e86824",
    "type" : "region",
    "components" : [ {
      "componentName" : "forceCommunity:seoAssistant",
      "componentAttributes" : {
        "metaTags" : "",
        "description" : "{!Record.Description}",
        "title" : "{!Record._Title}"
      },
      "renderPriority" : "NEUTRAL",
      "renditionMap" : { },
      "id" : "01e30dea-bbe2-40b1-9d55-ec26ebe8df9e",
      "type" : "component",
      "renditions" : [ ]
    } ]
  } ]
}