{
  "urlPrefix" : "CheckPasswordResetEmail",
  "appPageId" : "88f149a1-68ea-43c0-bc80-d1e4edf61f7e",
  "routeType" : "check-password",
  "pageAccess" : "UseParent",
  "label" : "Check Password",
  "id" : "e4925346-5a36-499e-b568-9b895e76dfb9",
  "type" : "route"
}