{
  "urlPrefix" : "dashboard",
  "appPageId" : "1df13a06-cd43-4a80-8668-bc927ea97379",
  "routeType" : "detail-01Z",
  "pageAccess" : "UseParent",
  "label" : "Dashboard Detail",
  "id" : "2bf7b86d-681f-4eb6-ad37-0b75e6c774cd",
  "type" : "route"
}