{
  "urlPrefix" : "contentdocument",
  "appPageId" : "1df13a06-cd43-4a80-8668-bc927ea97379",
  "routeType" : "list-069",
  "pageAccess" : "UseParent",
  "label" : "File List",
  "id" : "3fbc1f2c-b4a3-4bd0-a8d6-bf89a910640f",
  "type" : "route"
}