{
  "urlPrefix" : "group",
  "appPageId" : "1df13a06-cd43-4a80-8668-bc927ea97379",
  "routeType" : "list-0F9",
  "pageAccess" : "UseParent",
  "label" : "Group List",
  "id" : "0adf7b20-277f-46e4-a8b7-67bd03bf1f73",
  "type" : "route"
}