{
  "urlPrefix" : "",
  "appPageId" : "1df13a06-cd43-4a80-8668-bc927ea97379",
  "routeType" : "home",
  "pageAccess" : "UseParent",
  "label" : "Home",
  "id" : "ef7614a9-ca3a-46b6-8b9e-5ae92c3f9db2",
  "type" : "route"
}