{
  "urlPrefix" : "",
  "appPageId" : "88f149a1-68ea-43c0-bc80-d1e4edf61f7e",
  "routeType" : "login-home",
  "pageAccess" : "UseParent",
  "label" : "Login",
  "id" : "f544421d-e82d-41d0-a530-827a4eaf6cdc",
  "type" : "route"
}