{
  "urlPrefix" : "recordlist",
  "appPageId" : "1df13a06-cd43-4a80-8668-bc927ea97379",
  "routeType" : "list",
  "pageAccess" : "UseParent",
  "label" : "Record List",
  "id" : "068a57a5-4c36-4de7-96f7-74b0ef87aaef",
  "type" : "route"
}