{
  "urlPrefix" : "report",
  "appPageId" : "1df13a06-cd43-4a80-8668-bc927ea97379",
  "routeType" : "detail-00O",
  "pageAccess" : "UseParent",
  "label" : "Report Detail",
  "id" : "6fe29a5d-c076-43ef-91b9-d5de92f516ac",
  "type" : "route"
}