{
  "urlPrefix" : "sfdcpage",
  "appPageId" : "1df13a06-cd43-4a80-8668-bc927ea97379",
  "routeType" : "sfdcpage",
  "pageAccess" : "UseParent",
  "label" : "Sfdc Page",
  "id" : "c404a3ee-5bde-4aa9-a934-84a44bcc2d36",
  "type" : "route"
}