{
  "urlPrefix" : "streams",
  "appPageId" : "1df13a06-cd43-4a80-8668-bc927ea97379",
  "routeType" : "detail-0Fq",
  "pageAccess" : "UseParent",
  "label" : "Stream Detail",
  "id" : "8c3310ea-87d9-4f4a-b45a-28a1248eb62e",
  "type" : "route"
}