{
  "themeLayoutType" : "Inner",
  "viewType" : "article",
  "appPageId" : "361c3087-f299-487a-9a1a-1bfb390b4425",
  "componentName" : "siteforce:sldsTwoCol84Layout",
  "label" : "Article Detail",
  "id" : "1fbac117-d4aa-43c3-a4aa-b3d59cdd826e",
  "type" : "view",
  "regions" : [ {
    "regionName" : "header",
    "id" : "666556b0-b1ab-4761-af72-5e41cb165bb8",
    "type" : "region",
    "components" : [ ]
  }, {
    "regionName" : "content",
    "id" : "7aad7265-5bc6-4ca6-9ac9-e25f891ac2da",
    "type" : "region",
    "components" : [ {
      "componentName" : "forceCommunity:breadcrumbs",
      "componentAttributes" : {
        "uniqueNameOrId" : "{!urlName}"
      },
      "renderPriority" : "NEUTRAL",
      "renditionMap" : { },
      "id" : "90ec42a4-d90e-4173-8de0-f9e477865faf",
      "type" : "component",
      "renditions" : [ ]
    }, {
      "componentName" : "selfService:singleArticleView",
      "componentAttributes" : {
        "recordId" : "{!recordId}",
        "voteText" : "Was this article helpful?",
        "urlName" : "{!urlName}",
        "voteConfirm" : "Thanks for voting.",
        "showTitleInArticleHeader" : "true",
        "enableVoting" : "true",
        "showTopicPills" : "true",
        "class" : "zoom"
      },
      "renderPriority" : "NEUTRAL",
      "renditionMap" : { },
      "id" : "845e8b36-9b5c-487e-a636-f60c46c45b58",
      "type" : "component",
      "renditions" : [ ]
    }, {
      "componentName" : "forceCommunity:feedPublisher",
      "componentAttributes" : {
        "recordId" : "{!recordId}",
        "context" : "RECORD",
        "width" : "WIDE"
      },
      "renderPriority" : "NEUTRAL",
      "renditionMap" : { },
      "id" : "ce278052-ec88-4986-9b86-b8e302cd173b",
      "type" : "component",
      "renditions" : [ ]
    }, {
      "componentName" : "forceCommunity:forceCommunityFeed",
      "componentAttributes" : {
        "hasFeedSearch" : "false",
        "showFilteringMenuGroup" : "false",
        "canChangeSorting" : "false",
        "defaultFilter" : "",
        "defaultSortOrderTopicsFeed" : "Relevance",
        "feedDesign" : "DEFAULT",
        "type" : "Record",
        "defaultSortOrderHomeFeed" : "Relevance",
        "subjectId" : "{!recordId}"
      },
      "renderPriority" : "NEUTRAL",
      "renditionMap" : { },
      "id" : "95015831-a5a6-4ab1-b84b-64fa20a02915",
      "type" : "component",
      "renditions" : [ ]
    } ]
  }, {
    "regionName" : "sidebar",
    "id" : "c31273d4-3dc6-434e-92ba-a082775b4057",
    "type" : "region",
    "components" : [ {
      "componentName" : "forceCommunity:follow",
      "componentAttributes" : {
        "recordId" : "{!recordId}",
        "buttonAlignment" : "center",
        "buttonMaxWidth" : "100",
        "buttonBorderColor" : "",
        "showNotificationMenu" : "false",
        "buttonBgHoverColor" : "",
        "buttonRadius" : "0",
        "buttonTextColor" : "",
        "buttonTextHoverColor" : "",
        "buttonBgColor" : ""
      },
      "renderPriority" : "NEUTRAL",
      "renditionMap" : { },
      "id" : "fce46b9f-b218-47d5-9ced-f634b946afc5",
      "type" : "component",
      "renditions" : [ ]
    }, {
      "componentName" : "selfService:similarArticles42",
      "componentAttributes" : {
        "contextObjectId" : "{!urlName}",
        "title" : "Related Articles",
        "showViewCounts" : "true",
        "numberOfItems" : "5"
      },
      "renderPriority" : "NEUTRAL",
      "renditionMap" : { },
      "id" : "e8a0b91f-280e-46f7-864b-73dcfc741ed7",
      "type" : "component",
      "renditions" : [ ]
    }, {
      "componentName" : "selfService:topicTrendingArticles42",
      "componentAttributes" : {
        "topicId" : "{!topicId}",
        "title" : "Trending Articles",
        "numberOfArticles" : "5"
      },
      "renderPriority" : "NEUTRAL",
      "renditionMap" : { },
      "id" : "607bf8de-f9cb-4c3d-a5fb-7888e8e5a021",
      "type" : "component",
      "renditions" : [ ]
    } ]
  }, {
    "regionName" : "footer",
    "id" : "46ea5a27-eed8-4889-8758-631dfe90d15f",
    "type" : "region",
    "components" : [ {
      "componentName" : "siteforce:napiliFooter",
      "componentAttributes" : {
        "buttonBorderColor" : "",
        "buttonTwoBgHoverColor" : "",
        "contactSupportLabel" : "Contact Support",
        "buttonTextHoverColor" : "",
        "askCommunityLabel" : "Ask a Question",
        "buttonTwoBgColor" : "",
        "buttonTwoTextHoverColor" : "",
        "buttonBgHoverColor" : "",
        "satisfactionPromptLabel" : "Did we help to answer your question?",
        "showTopics" : "true",
        "buttonTextColor" : "",
        "isPublisherDeflectionEnabled" : "true",
        "buttonTwoBorderColor" : "",
        "isAskFollowPromptEnabled" : "true",
        "isIncludeArticlesEnabled" : "false",
        "isIncludeDiscussionsEnabled" : "true",
        "headerLabel" : "Don't see what you're looking for?",
        "buttonTwoTextColor" : "",
        "followUpPromptLabel" : "Can we close your question?",
        "isInitialSatisfactionPromptEnabled" : "true",
        "maxSuggestions" : "5",
        "buttonTwoRadius" : "0",
        "buttonRadius" : "0",
        "buttonBgColor" : "",
        "showDetails" : "false",
        "confirmationMessage" : "Got it!"
      },
      "renderPriority" : "NEUTRAL",
      "renditionMap" : { },
      "id" : "e8577100-348d-4199-9801-e955de434600",
      "type" : "component",
      "renditions" : [ ]
    } ]
  }, {
    "regionName" : "sfdcHiddenRegion",
    "id" : "880d0555-d470-46ec-8aec-079f3ded944a",
    "type" : "region",
    "components" : [ {
      "componentName" : "forceCommunity:seoAssistant",
      "componentAttributes" : {
        "metaTags" : "",
        "description" : "{!Record.Summary}",
        "title" : "{!Record._Title}"
      },
      "renderPriority" : "NEUTRAL",
      "renditionMap" : { },
      "id" : "52199b2c-d756-4934-a97f-4fff17b15aef",
      "type" : "component",
      "renditions" : [ ]
    } ]
  } ]
}