{
  "themeLayoutType" : "Inner",
  "viewType" : "list-01Z",
  "appPageId" : "361c3087-f299-487a-9a1a-1bfb390b4425",
  "componentName" : "siteforce:sldsOneColLayout",
  "label" : "Dashboard List",
  "id" : "2f474b2c-1293-4c3a-8de9-7cd0b77c514f",
  "type" : "view",
  "regions" : [ {
    "regionName" : "header",
    "id" : "321f6be9-150b-4939-9f70-68672b21f6c5",
    "type" : "region",
    "components" : [ ]
  }, {
    "regionName" : "content",
    "id" : "93af7bfc-437f-4d58-8a88-192141df49b8",
    "type" : "region",
    "components" : [ {
      "componentName" : "forceCommunity:dashboardList",
      "componentAttributes" : { },
      "renderPriority" : "NEUTRAL",
      "renditionMap" : { },
      "id" : "6975c492-b6b4-4ca2-b473-023d9d448cba",
      "type" : "component",
      "renditions" : [ ]
    } ]
  }, {
    "regionName" : "footer",
    "id" : "0c4ecc57-9a84-435a-8656-8428c0208eae",
    "type" : "region",
    "components" : [ ]
  }, {
    "regionName" : "sfdcHiddenRegion",
    "id" : "d5ecd178-4ba4-49bf-bdf2-884ebaeaa77c",
    "type" : "region",
    "components" : [ {
      "componentName" : "forceCommunity:seoAssistant",
      "componentAttributes" : {
        "metaTags" : "",
        "description" : "",
        "title" : ""
      },
      "renderPriority" : "NEUTRAL",
      "renditionMap" : { },
      "id" : "631d4b80-76ea-4377-b9fe-fd828a238e4b",
      "type" : "component",
      "renditions" : [ ]
    } ]
  } ]
}