{
  "themeLayoutType" : "Inner",
  "viewType" : "relatedlist-0F9",
  "appPageId" : "361c3087-f299-487a-9a1a-1bfb390b4425",
  "componentName" : "siteforce:sldsOneColLayout",
  "label" : "Group Related List",
  "id" : "5a4cf7a3-292c-4215-9969-56de278b3525",
  "type" : "view",
  "regions" : [ {
    "regionName" : "header",
    "id" : "fbd5a3cf-acfc-4812-911a-a177acf5a7f1",
    "type" : "region",
    "components" : [ ]
  }, {
    "regionName" : "content",
    "id" : "43f0eb95-6db7-4de8-b342-5fd848d6cab7",
    "type" : "region",
    "components" : [ {
      "componentName" : "forceCommunity:relatedList",
      "componentAttributes" : {
        "showRowNumbers" : "true",
        "showBreadCrumbs" : "true",
        "showManualRefreshButton" : "true",
        "relatedListName" : "{!relationshipApiName}",
        "customTitle" : "",
        "parentRecordId" : "{!recordId}",
        "showCustomTitle" : "false"
      },
      "renderPriority" : "NEUTRAL",
      "renditionMap" : { },
      "id" : "788de777-25fb-4bce-bc1e-13c7f50e2307",
      "type" : "component",
      "renditions" : [ ]
    } ]
  }, {
    "regionName" : "footer",
    "id" : "d98d52e5-d272-4a70-a92b-162355c0f012",
    "type" : "region",
    "components" : [ ]
  }, {
    "regionName" : "sfdcHiddenRegion",
    "id" : "83b657f5-6a98-488b-991e-803830e98245",
    "type" : "region",
    "components" : [ {
      "componentName" : "forceCommunity:seoAssistant",
      "componentAttributes" : {
        "metaTags" : "",
        "description" : "",
        "title" : ""
      },
      "renderPriority" : "NEUTRAL",
      "renditionMap" : { },
      "id" : "f676a321-cedd-4400-aa8f-69c9397061fd",
      "type" : "component",
      "renditions" : [ ]
    } ]
  } ]
}