{
  "themeLayoutType" : "Inner",
  "viewType" : "relatedlist",
  "appPageId" : "361c3087-f299-487a-9a1a-1bfb390b4425",
  "componentName" : "siteforce:sldsOneColLayout",
  "label" : "Related Record List",
  "id" : "28c3a5e0-a5e7-4dfc-9b3b-008c03a283b6",
  "type" : "view",
  "regions" : [ {
    "regionName" : "header",
    "id" : "135e25fb-2b43-4215-ac9d-46efc4b64098",
    "type" : "region",
    "components" : [ ]
  }, {
    "regionName" : "content",
    "id" : "592537b6-1200-4a8c-8546-2f0f299d093c",
    "type" : "region",
    "components" : [ {
      "componentName" : "forceCommunity:relatedList",
      "componentAttributes" : {
        "showRowNumbers" : "true",
        "showBreadCrumbs" : "true",
        "showManualRefreshButton" : "true",
        "relatedListName" : "{!relationshipApiName}",
        "customTitle" : "",
        "parentRecordId" : "{!recordId}",
        "showCustomTitle" : "false"
      },
      "renderPriority" : "NEUTRAL",
      "renditionMap" : { },
      "id" : "2f758877-ad1a-44c1-96e3-ba23324c15dc",
      "type" : "component",
      "renditions" : [ ]
    } ]
  }, {
    "regionName" : "footer",
    "id" : "59e93997-baa3-49f1-80ad-927abd302f24",
    "type" : "region",
    "components" : [ ]
  }, {
    "regionName" : "sfdcHiddenRegion",
    "id" : "3da994ce-77ec-4c44-9913-1aa4766054a8",
    "type" : "region",
    "components" : [ {
      "componentName" : "forceCommunity:seoAssistant",
      "componentAttributes" : {
        "metaTags" : "",
        "description" : "",
        "title" : ""
      },
      "renderPriority" : "NEUTRAL",
      "renditionMap" : { },
      "id" : "314918fd-8573-4618-bad8-3483e7805a14",
      "type" : "component",
      "renditions" : [ ]
    } ]
  } ]
}