{
  "themeLayoutType" : "Inner",
  "viewType" : "relatedlist-00O",
  "appPageId" : "361c3087-f299-487a-9a1a-1bfb390b4425",
  "componentName" : "siteforce:sldsOneColLayout",
  "label" : "Report Related List",
  "id" : "c2e2aeca-7165-4e5a-bbdb-3429422f374d",
  "type" : "view",
  "regions" : [ {
    "regionName" : "header",
    "id" : "20bcbe5c-2e78-4f38-8aa6-f848835d72eb",
    "type" : "region",
    "components" : [ ]
  }, {
    "regionName" : "content",
    "id" : "78fb1167-078f-425d-897f-bbf5f098312a",
    "type" : "region",
    "components" : [ {
      "componentName" : "forceCommunity:relatedList",
      "componentAttributes" : {
        "showRowNumbers" : "true",
        "showBreadCrumbs" : "true",
        "showManualRefreshButton" : "true",
        "relatedListName" : "{!relationshipApiName}",
        "customTitle" : "",
        "parentRecordId" : "{!recordId}",
        "showCustomTitle" : "false"
      },
      "renderPriority" : "NEUTRAL",
      "renditionMap" : { },
      "id" : "0e9c92a4-cf17-4593-9502-ed8743525f43",
      "type" : "component",
      "renditions" : [ ]
    } ]
  }, {
    "regionName" : "footer",
    "id" : "55dc8ebf-8271-4cc9-92f9-43e388d989bb",
    "type" : "region",
    "components" : [ ]
  }, {
    "regionName" : "sfdcHiddenRegion",
    "id" : "58c271be-6674-45b7-a510-7791ba585c9f",
    "type" : "region",
    "components" : [ {
      "componentName" : "forceCommunity:seoAssistant",
      "componentAttributes" : {
        "metaTags" : "",
        "description" : "",
        "title" : ""
      },
      "renderPriority" : "NEUTRAL",
      "renditionMap" : { },
      "id" : "ef26ff90-8b15-4669-80f5-8b38cbdff9b7",
      "type" : "component",
      "renditions" : [ ]
    } ]
  } ]
}