{
  "themeLayoutType" : "Inner",
  "viewType" : "list-00O",
  "appPageId" : "361c3087-f299-487a-9a1a-1bfb390b4425",
  "componentName" : "siteforce:sldsOneColLayout",
  "label" : "Report List",
  "id" : "548ea164-de18-4524-91be-3a2e7c0de14c",
  "type" : "view",
  "regions" : [ {
    "regionName" : "header",
    "id" : "d584597d-b9e0-4260-8935-1a312eefb8af",
    "type" : "region",
    "components" : [ ]
  }, {
    "regionName" : "content",
    "id" : "8f22033f-b014-40a6-b674-f1095d1119e3",
    "type" : "region",
    "components" : [ {
      "componentName" : "forceCommunity:reportList",
      "componentAttributes" : { },
      "renderPriority" : "NEUTRAL",
      "renditionMap" : { },
      "id" : "6e395783-2a25-43b6-945e-5a9541a484aa",
      "type" : "component",
      "renditions" : [ ]
    } ]
  }, {
    "regionName" : "footer",
    "id" : "d52186c9-b0a6-4523-9169-f8dc957fadc5",
    "type" : "region",
    "components" : [ ]
  }, {
    "regionName" : "sfdcHiddenRegion",
    "id" : "614add80-5153-45ce-8c7e-3de9c24b473d",
    "type" : "region",
    "components" : [ {
      "componentName" : "forceCommunity:seoAssistant",
      "componentAttributes" : {
        "metaTags" : "",
        "description" : "",
        "title" : ""
      },
      "renderPriority" : "NEUTRAL",
      "renditionMap" : { },
      "id" : "da21f68c-ae14-42ad-89f0-ee9d04be463a",
      "type" : "component",
      "renditions" : [ ]
    } ]
  } ]
}