{
  "themeLayoutType" : "Inner",
  "viewType" : "relatedlist-005",
  "appPageId" : "361c3087-f299-487a-9a1a-1bfb390b4425",
  "componentName" : "siteforce:sldsOneColLayout",
  "label" : "User Related List",
  "id" : "da62b9ff-a894-4863-a562-8ce62636ac87",
  "type" : "view",
  "regions" : [ {
    "regionName" : "header",
    "id" : "151415f4-4c0b-41ce-b020-31a93e91ee77",
    "type" : "region",
    "components" : [ ]
  }, {
    "regionName" : "content",
    "id" : "999471f6-bb25-410f-a25e-c61c73e7dfbe",
    "type" : "region",
    "components" : [ {
      "componentName" : "forceCommunity:relatedList",
      "componentAttributes" : {
        "showRowNumbers" : "true",
        "showBreadCrumbs" : "true",
        "showManualRefreshButton" : "true",
        "relatedListName" : "{!relationshipApiName}",
        "customTitle" : "",
        "parentRecordId" : "{!recordId}",
        "showCustomTitle" : "false"
      },
      "renderPriority" : "NEUTRAL",
      "renditionMap" : { },
      "id" : "f481d82d-2e09-4d48-b3fd-e1486c37779a",
      "type" : "component",
      "renditions" : [ ]
    } ]
  }, {
    "regionName" : "footer",
    "id" : "a24e9bfa-6a56-4b59-aa8b-1a4b6a41926d",
    "type" : "region",
    "components" : [ ]
  }, {
    "regionName" : "sfdcHiddenRegion",
    "id" : "d93ec7a0-61c7-4ff0-bf41-f0c52ca74f65",
    "type" : "region",
    "components" : [ {
      "componentName" : "forceCommunity:seoAssistant",
      "componentAttributes" : {
        "metaTags" : "",
        "description" : "",
        "title" : ""
      },
      "renderPriority" : "NEUTRAL",
      "renditionMap" : { },
      "id" : "48937976-b73a-41a5-ae3a-310bdefa683f",
      "type" : "component",
      "renditions" : [ ]
    } ]
  } ]
}