{
  "urlPrefix" : "account-management",
  "appPageId" : "f864f8a4-36aa-420e-8da1-4667700e4718",
  "routeType" : "account-management",
  "pageAccess" : "UseParent",
  "label" : "Account Management",
  "id" : "9e2502c2-bb5e-4a41-bc95-df3ac9aab5af",
  "type" : "route"
}