{
  "urlPrefix" : "canvasapp",
  "appPageId" : "f864f8a4-36aa-420e-8da1-4667700e4718",
  "routeType" : "canvasapp",
  "pageAccess" : "UseParent",
  "label" : "Canvasapp Page",
  "id" : "25295d84-817b-4d0d-b69e-f5d8d7d5105c",
  "type" : "route"
}