{
  "urlPrefix" : "dashboard",
  "appPageId" : "f864f8a4-36aa-420e-8da1-4667700e4718",
  "routeType" : "list-01Z",
  "pageAccess" : "UseParent",
  "label" : "Dashboard List",
  "id" : "14732aa5-6b21-4dea-ad08-861618ad5f8d",
  "type" : "route"
}