{
  "urlPrefix" : "error",
  "appPageId" : "f864f8a4-36aa-420e-8da1-4667700e4718",
  "routeType" : "error",
  "pageAccess" : "UseParent",
  "label" : "Error",
  "id" : "20d31950-dd0e-46cc-919c-015b35d84c0a",
  "type" : "route"
}