{
  "urlPrefix" : "relatedlist",
  "appPageId" : "f864f8a4-36aa-420e-8da1-4667700e4718",
  "routeType" : "relatedlist",
  "pageAccess" : "UseParent",
  "label" : "Related Record List",
  "id" : "bf85a601-859c-4e08-8ea1-9dbc4054f33f",
  "type" : "route"
}