{
  "urlPrefix" : "topiccatalog",
  "appPageId" : "f864f8a4-36aa-420e-8da1-4667700e4718",
  "routeType" : "topic-catalog",
  "pageAccess" : "UseParent",
  "label" : "Topic Catalog",
  "id" : "bc474f60-5c70-4f34-a6cb-6c8a7695820c",
  "type" : "route"
}