{
  "themeLayoutType" : "Inner",
  "viewType" : "flow",
  "appPageId" : "ff1fa3cf-b223-420d-b7b3-72267d512e25",
  "componentName" : "siteforce:sldsOneColLayout",
  "label" : "Flow",
  "id" : "9c21599a-a9fc-46f7-a489-9c4f19f74ef9",
  "type" : "view",
  "regions" : [ {
    "regionName" : "header",
    "id" : "37b677d8-b26a-4f33-97f4-a872ae705df5",
    "type" : "region",
    "components" : [ ]
  }, {
    "regionName" : "content",
    "id" : "45282a97-2940-4fe3-aad0-42e76a373e34",
    "type" : "region",
    "components" : [ {
      "componentName" : "forceCommunity:flowCommunity",
      "componentAttributes" : {
        "flowLayout" : "oneColumn",
        "flowArguments" : "",
        "flowName" : "{!flowName}"
      },
      "renderPriority" : "NEUTRAL",
      "renditionMap" : { },
      "id" : "d97819b9-01fd-4e1c-8480-be1f8a84665d",
      "type" : "component",
      "renditions" : [ ]
    } ]
  }, {
    "regionName" : "footer",
    "id" : "ed45d1b1-c05d-4009-a290-b18cff072976",
    "type" : "region",
    "components" : [ ]
  }, {
    "regionName" : "sfdcHiddenRegion",
    "id" : "e93b1069-c005-48df-a1c7-35107781e27b",
    "type" : "region",
    "components" : [ {
      "componentName" : "forceCommunity:seoAssistant",
      "componentAttributes" : {
        "metaTags" : "",
        "description" : "",
        "title" : ""
      },
      "renderPriority" : "NEUTRAL",
      "renditionMap" : { },
      "id" : "f9bba55b-61dc-4716-87a7-38d56048b48d",
      "type" : "component",
      "renditions" : [ ]
    } ]
  } ]
}