{
  "themeLayoutType" : "Login",
  "viewType" : "forgot-password",
  "appPageId" : "2518aa5d-028f-4fa6-aee1-6b509990e4d9",
  "componentName" : "siteforce:sldsOneColLayout",
  "label" : "Forgot Password",
  "id" : "61c2ae39-f46e-4fc3-bafd-5e86cb765575",
  "type" : "view",
  "regions" : [ {
    "regionName" : "content",
    "id" : "8e81b9fc-138b-4b21-ac4b-1e01b12bed0f",
    "type" : "region",
    "components" : [ {
      "componentName" : "forceCommunity:richTextInline",
      "componentAttributes" : {
        "richTextValue" : "<div style=\"text-align: center;\"><span style=\"font-size:22px\">PASSWORD RESET</span></div>"
      },
      "renderPriority" : "NEUTRAL",
      "renditionMap" : { },
      "id" : "0331d11c-9861-4cdb-9fe2-725797002097",
      "type" : "component",
      "renditions" : [ ]
    }, {
      "componentName" : "forceCommunity:richTextInline",
      "componentAttributes" : {
        "richTextValue" : "<div style=\"text-align: center;\">To reset your password, we'll need your username.<br/> We'll send password reset instructions to the email address associated with your account.</div>"
      },
      "renderPriority" : "NEUTRAL",
      "renditionMap" : { },
      "id" : "b7670c46-62a1-483b-ae28-800b214df764",
      "type" : "component",
      "renditions" : [ ]
    }, {
      "componentName" : "salesforceIdentity:forgotPassword2",
      "componentAttributes" : {
        "checkEmailUrl" : "./CheckPasswordResetEmail",
        "submitButtonLabel" : "Reset Password",
        "usernameLabel" : "Username"
      },
      "renderPriority" : "NEUTRAL",
      "renditionMap" : { },
      "id" : "b17ad8c6-3838-45e1-a98d-b899f3e45a9e",
      "type" : "component",
      "renditions" : [ ]
    }, {
      "componentName" : "forceCommunity:richTextInline",
      "componentAttributes" : {
        "richTextValue" : "<div style=\"text-align: center;\"><a href=\"./\">Cancel</a></div>"
      },
      "renderPriority" : "NEUTRAL",
      "renditionMap" : { },
      "id" : "3e72d5a5-96e0-4ddc-8c82-cbb61951b539",
      "type" : "component",
      "renditions" : [ ]
    } ]
  }, {
    "regionName" : "sfdcHiddenRegion",
    "id" : "6aae6f53-64d9-49ac-84db-a921631aa6f9",
    "type" : "region",
    "components" : [ {
      "componentName" : "forceCommunity:seoAssistant",
      "componentAttributes" : {
        "metaTags" : "",
        "description" : "",
        "title" : "Forgot Password"
      },
      "renderPriority" : "NEUTRAL",
      "renditionMap" : { },
      "id" : "d6119b69-e6ad-4067-a0ad-d4c40215271b",
      "type" : "component",
      "renditions" : [ ]
    } ]
  } ]
}