{
  "themeLayoutType" : "Inner",
  "viewType" : "messages",
  "appPageId" : "ff1fa3cf-b223-420d-b7b3-72267d512e25",
  "componentName" : "siteforce:sldsOneColLayout",
  "label" : "Messages",
  "id" : "36a4ac5f-eb5d-4297-8fcb-a95a1ce8ce71",
  "type" : "view",
  "regions" : [ {
    "regionName" : "content",
    "id" : "90ff3df1-307b-4be6-9009-700341f1d881",
    "type" : "region",
    "components" : [ {
      "componentName" : "forceChatter:messages",
      "componentAttributes" : { },
      "renderPriority" : "NEUTRAL",
      "renditionMap" : { },
      "id" : "04d50b1b-172e-476c-b61b-35d310d3c75b",
      "type" : "component",
      "renditions" : [ ]
    } ]
  }, {
    "regionName" : "sfdcHiddenRegion",
    "id" : "6ba03ef8-8b0a-4256-af66-e6cb42705736",
    "type" : "region",
    "components" : [ {
      "componentName" : "forceCommunity:seoAssistant",
      "componentAttributes" : {
        "metaTags" : "",
        "description" : "",
        "title" : ""
      },
      "renderPriority" : "NEUTRAL",
      "renditionMap" : { },
      "id" : "f36a35f1-3cdd-4639-9f0a-88283babbcc4",
      "type" : "component",
      "renditions" : [ ]
    } ]
  } ]
}