{
  "themeLayoutType" : "Inner",
  "viewType" : "global-search",
  "appPageId" : "ff1fa3cf-b223-420d-b7b3-72267d512e25",
  "componentName" : "siteforce:sldsOneColLayout",
  "label" : "Search",
  "id" : "9d5f58aa-d3bc-46af-9a27-505222432357",
  "type" : "view",
  "regions" : [ {
    "regionName" : "header",
    "id" : "a4e71bf0-65f1-451c-bbc7-b05c76f2f21f",
    "type" : "region",
    "components" : [ ]
  }, {
    "regionName" : "content",
    "id" : "4334a444-4f7a-4caf-ad84-3cb1bc1e81b2",
    "type" : "region",
    "components" : [ {
      "componentName" : "forceCommunity:search",
      "componentAttributes" : {
        "showTopResults" : "true",
        "topicId" : "{!topicId}",
        "term" : "{!searchString}",
        "searchTerm" : "{!searchString}",
        "scopes" : "[{\"name\":\"KnowledgeArticleVersion\",\"isPublic\":true},{\"name\":\"Case\",\"isPublic\":false},{\"name\":\"ContentDocument\",\"isPublic\":true}]",
        "searchResultFiltering" : "true"
      },
      "renderPriority" : "NEUTRAL",
      "renditionMap" : { },
      "id" : "bbc28f2e-f656-4f68-9e5c-fd1d69659e96",
      "type" : "component",
      "renditions" : [ ]
    } ]
  }, {
    "regionName" : "footer",
    "id" : "4b822ea4-5a32-4893-9fb1-fff06c2bf90d",
    "type" : "region",
    "components" : [ ]
  }, {
    "regionName" : "sfdcHiddenRegion",
    "id" : "4d996340-08ce-4ebf-9745-d2ef578fa0ad",
    "type" : "region",
    "components" : [ {
      "componentName" : "forceCommunity:seoAssistant",
      "componentAttributes" : {
        "metaTags" : "",
        "description" : "",
        "title" : ""
      },
      "renderPriority" : "NEUTRAL",
      "renditionMap" : { },
      "id" : "895828a2-11cf-42e0-9964-e7a175653474",
      "type" : "component",
      "renditions" : [ ]
    } ]
  } ]
}