{
  "themeLayoutType" : "Inner",
  "viewType" : "relatedlist-005",
  "appPageId" : "ff1fa3cf-b223-420d-b7b3-72267d512e25",
  "componentName" : "siteforce:sldsOneColLayout",
  "label" : "User Related List",
  "id" : "ec9e82a6-cad5-4e86-9411-d02adcede75c",
  "type" : "view",
  "regions" : [ {
    "regionName" : "header",
    "id" : "cb195414-209d-4ffb-96a9-fcbfeb1c9e85",
    "type" : "region",
    "components" : [ ]
  }, {
    "regionName" : "content",
    "id" : "cb222992-0ea5-4f5d-94c8-e1c97c38bcbb",
    "type" : "region",
    "components" : [ {
      "componentName" : "forceCommunity:relatedList",
      "componentAttributes" : {
        "showRowNumbers" : "true",
        "showBreadCrumbs" : "true",
        "showManualRefreshButton" : "true",
        "relatedListName" : "{!relationshipApiName}",
        "customTitle" : "",
        "parentRecordId" : "{!recordId}",
        "showCustomTitle" : "false"
      },
      "renderPriority" : "NEUTRAL",
      "renditionMap" : { },
      "id" : "e4685863-4ba1-49d2-b901-a62dc5a5e086",
      "type" : "component",
      "renditions" : [ ]
    } ]
  }, {
    "regionName" : "footer",
    "id" : "4d100abb-3b19-435d-b196-89a821ca419e",
    "type" : "region",
    "components" : [ ]
  }, {
    "regionName" : "sfdcHiddenRegion",
    "id" : "990d0d03-a56a-4be0-b340-c11998adc8df",
    "type" : "region",
    "components" : [ {
      "componentName" : "forceCommunity:seoAssistant",
      "componentAttributes" : {
        "metaTags" : "",
        "description" : "",
        "title" : ""
      },
      "renderPriority" : "NEUTRAL",
      "renditionMap" : { },
      "id" : "24353f4c-986d-4f2b-a168-2674654f5a1d",
      "type" : "component",
      "renditions" : [ ]
    } ]
  } ]
}