{
  "themeLayoutType" : "Inner",
  "viewType" : "account-management",
  "appPageId" : "f864f8a4-36aa-420e-8da1-4667700e4718",
  "componentName" : "siteforce:sldsOneColLayout",
  "label" : "Account Management",
  "id" : "c918d873-4de0-4956-bd77-ac9d673a26ae",
  "type" : "view",
  "regions" : [ {
    "regionName" : "header",
    "id" : "add0a9e1-99fc-4367-8281-7ca1a1284c79",
    "type" : "region",
    "components" : [ ]
  }, {
    "regionName" : "content",
    "id" : "766d7ae7-8237-4fb0-b229-f8668fe44947",
    "type" : "region",
    "components" : [ {
      "componentName" : "forceCommunity:tabset",
      "componentAttributes" : {
        "tabsetConfig" : "{\"UUID\":\"02b5113e-f8cf-445f-b4a2-fe5b73c256ab\",\"activeTab\":\"tab1\",\"useOverflowMenu\":false,\"tabs\":[{\"UUID\":\"79ebed89-17ee-473a-a6d4-10f50898005f\",\"tabName\":\"Members\",\"tabKey\":\"tab1\",\"locked\":false,\"allowGuestUser\":false,\"seedComponents\":[{\"fqn\":\"forceCommunity:relatedList\",\"attributes\":{\"parentRecordId\":\"{!CurrentUser.accountId}\",\"relatedListName\":\"Users\",\"customTitle\":\"Members\",\"showCustomTitle\":\"true\",\"showBreadCrumbs\":\"false\",\"showRowNumbers\":\"false\",\"showManualRefreshButton\":\"false\"}}]},{\"UUID\":\"15501696-73fb-4585-8992-8d3fb095212f\",\"tabName\":\"Branding\",\"tabKey\":\"tab2\",\"locked\":false,\"allowGuestUser\":false,\"seedComponents\":[{\"fqn\":\"forceCommunity:accountBrandRecord\",\"attributes\":{\"recordId\":\"{!CurrentUser.accountId}\"}}]}]}",
        "regions" : ""
      },
      "renderPriority" : "NEUTRAL",
      "renditionMap" : { },
      "id" : "02b5113e-f8cf-445f-b4a2-fe5b73c256ab",
      "type" : "component",
      "renditions" : [ {
        "regionName" : "tab1",
        "regionLabel" : "Members",
        "id" : "79ebed89-17ee-473a-a6d4-10f50898005f",
        "type" : "region",
        "components" : [ {
          "componentName" : "forceCommunity:relatedList",
          "componentAttributes" : {
            "showRowNumbers" : "false",
            "showBreadCrumbs" : "false",
            "showManualRefreshButton" : "false",
            "relatedListName" : "Users",
            "customTitle" : "Members",
            "parentRecordId" : "{!CurrentUser.accountId}",
            "showCustomTitle" : "true"
          },
          "renderPriority" : "NEUTRAL",
          "renditionMap" : { },
          "id" : "38b056e2-be4e-4364-9a65-ecbb5fa2cab6",
          "type" : "component",
          "renditions" : [ ]
        } ]
      }, {
        "regionName" : "tab2",
        "regionLabel" : "Branding",
        "id" : "15501696-73fb-4585-8992-8d3fb095212f",
        "type" : "region",
        "components" : [ {
          "componentName" : "forceCommunity:accountBrandRecord",
          "componentAttributes" : {
            "recordId" : "{!CurrentUser.accountId}"
          },
          "renderPriority" : "NEUTRAL",
          "renditionMap" : { },
          "id" : "07d53469-c5de-41c2-9ad7-564997cce40c",
          "type" : "component",
          "renditions" : [ ]
        } ]
      } ]
    } ]
  }, {
    "regionName" : "footer",
    "id" : "bea6c137-9f8d-4349-b921-eded21804bdc",
    "type" : "region",
    "components" : [ ]
  }, {
    "regionName" : "sfdcHiddenRegion",
    "id" : "8cd04b6e-e52a-4c9d-b2aa-7ede9ce2ec4a",
    "type" : "region",
    "components" : [ {
      "componentName" : "forceCommunity:seoAssistant",
      "componentAttributes" : {
        "metaTags" : "",
        "description" : "",
        "title" : "Account Management"
      },
      "renderPriority" : "NEUTRAL",
      "renditionMap" : { },
      "id" : "5a05db78-ab44-4ead-8163-a5813f591d07",
      "type" : "component",
      "renditions" : [ ]
    } ]
  } ]
}