{
  "themeLayoutType" : "Inner",
  "viewType" : "detail-500",
  "appPageId" : "f864f8a4-36aa-420e-8da1-4667700e4718",
  "componentName" : "siteforce:sldsOneColLayout",
  "label" : "Case Detail",
  "id" : "9dbde04f-34c4-4d1c-9882-a663231515ec",
  "type" : "view",
  "regions" : [ {
    "regionName" : "header",
    "id" : "08fa00ba-316a-44b1-96a9-1b135163012d",
    "type" : "region",
    "components" : [ ]
  }, {
    "regionName" : "content",
    "id" : "ca48f8fc-b924-4374-b37b-ebc2d9f03911",
    "type" : "region",
    "components" : [ {
      "componentName" : "forceCommunity:recordHeadline",
      "componentAttributes" : {
        "recordId" : "{!recordId}"
      },
      "renderPriority" : "NEUTRAL",
      "renditionMap" : { },
      "id" : "20769930-2d35-495b-a20e-bf4c3a9f962e",
      "type" : "component",
      "renditions" : [ ]
    }, {
      "componentName" : "forceCommunity:recordHomeTabs",
      "componentAttributes" : {
        "recordId" : "{!recordId}",
        "relatedTabLabel" : "Related",
        "detailsTabLabel" : "Details",
        "discussionsTabLabel" : "Feed",
        "timelineTabLabel" : "Activity",
        "tab1Type" : "details",
        "tab4Type" : "none",
        "tab3Type" : "chatter",
        "tab2Type" : "related"
      },
      "renderPriority" : "NEUTRAL",
      "renditionMap" : { },
      "id" : "07aa6837-8742-4df7-934d-9220b3331443",
      "type" : "component",
      "renditions" : [ ]
    } ]
  }, {
    "regionName" : "footer",
    "id" : "775f71cc-d770-4c15-8f7c-69888bc1d63c",
    "type" : "region",
    "components" : [ ]
  }, {
    "regionName" : "sfdcHiddenRegion",
    "id" : "b88892bf-3edd-40e7-b48b-33d0ff08f9eb",
    "type" : "region",
    "components" : [ {
      "componentName" : "forceCommunity:seoAssistant",
      "componentAttributes" : {
        "metaTags" : "",
        "description" : "",
        "title" : "{!Record._Object}: {!Record._Title}"
      },
      "renderPriority" : "NEUTRAL",
      "renditionMap" : { },
      "id" : "f6d9114e-4418-4230-9bf9-9996b046382c",
      "type" : "component",
      "renditions" : [ ]
    } ]
  } ]
}