{
  "themeLayoutType" : "Inner",
  "viewType" : "list-01Z",
  "appPageId" : "f864f8a4-36aa-420e-8da1-4667700e4718",
  "componentName" : "siteforce:sldsOneColLayout",
  "label" : "Dashboard List",
  "id" : "6de19827-e453-4011-b55c-8183d4465622",
  "type" : "view",
  "regions" : [ {
    "regionName" : "header",
    "id" : "4f46ebdc-4d61-4d25-b2f6-2c97489d91b2",
    "type" : "region",
    "components" : [ ]
  }, {
    "regionName" : "content",
    "id" : "1356b59b-f667-4d78-b553-ee42396cf6d3",
    "type" : "region",
    "components" : [ {
      "componentName" : "forceCommunity:dashboardList",
      "componentAttributes" : { },
      "renderPriority" : "NEUTRAL",
      "renditionMap" : { },
      "id" : "f16574ac-bce9-4fe4-9481-ff704f384b6b",
      "type" : "component",
      "renditions" : [ ]
    } ]
  }, {
    "regionName" : "footer",
    "id" : "da1946ff-e20c-401f-823c-937baa9faf1d",
    "type" : "region",
    "components" : [ ]
  }, {
    "regionName" : "sfdcHiddenRegion",
    "id" : "588bde49-5ae8-456b-bcd2-3afc97b7a95b",
    "type" : "region",
    "components" : [ {
      "componentName" : "forceCommunity:seoAssistant",
      "componentAttributes" : {
        "metaTags" : "",
        "description" : "",
        "title" : ""
      },
      "renderPriority" : "NEUTRAL",
      "renditionMap" : { },
      "id" : "0f6e5bd3-d582-4f85-8424-86708c0bf3b9",
      "type" : "component",
      "renditions" : [ ]
    } ]
  } ]
}