{
  "themeLayoutType" : "Inner",
  "viewType" : "detail-0F9",
  "appPageId" : "f864f8a4-36aa-420e-8da1-4667700e4718",
  "componentName" : "siteforce:sldsOneColLayout",
  "label" : "Group Detail",
  "id" : "828ea702-906f-46bf-9bf6-da85a5b6ac1e",
  "type" : "view",
  "regions" : [ {
    "regionName" : "header",
    "id" : "2248cb8d-cbf5-43a0-9d44-be0f1d4aaf60",
    "type" : "region",
    "components" : [ ]
  }, {
    "regionName" : "content",
    "id" : "92384393-66e2-4762-9d9a-95dd6f760a72",
    "type" : "region",
    "components" : [ {
      "componentName" : "forceCommunity:groupRecordHomeTabs",
      "componentAttributes" : {
        "recordId" : "{!recordId}",
        "relatedTabLabel" : "Related",
        "feedTabLabel" : "Feed",
        "detailsTabLabel" : "Details",
        "engagementManagersOnly" : "false",
        "engagementTabLabel" : "Engagement"
      },
      "renderPriority" : "NEUTRAL",
      "renditionMap" : { },
      "id" : "0fb18249-aa9d-404d-b5b0-f693a37ad50c",
      "type" : "component",
      "renditions" : [ ]
    } ]
  }, {
    "regionName" : "footer",
    "id" : "de9bb319-ee23-4916-b62a-f2e825ef4e26",
    "type" : "region",
    "components" : [ ]
  }, {
    "regionName" : "sfdcHiddenRegion",
    "id" : "a59ea4d1-ba81-4cea-853e-27e63e056406",
    "type" : "region",
    "components" : [ {
      "componentName" : "forceCommunity:seoAssistant",
      "componentAttributes" : {
        "metaTags" : "",
        "description" : "",
        "title" : "{!Record._Object}: {!Record._Title}"
      },
      "renderPriority" : "NEUTRAL",
      "renditionMap" : { },
      "id" : "5bcb052f-3e8a-4409-b348-92f23c9598b0",
      "type" : "component",
      "renditions" : [ ]
    } ]
  } ]
}