{
  "themeLayoutType" : "Login",
  "viewType" : "login-error",
  "appPageId" : "ecb22d48-d9ca-4734-9be2-1b8efca1eed4",
  "componentName" : "siteforce:sldsOneColLayout",
  "label" : "Login Error",
  "id" : "0811b474-1ff5-4d38-bd71-83e4000d5a75",
  "type" : "view",
  "regions" : [ {
    "regionName" : "header",
    "id" : "93650a62-6c6c-47cd-b7c9-9bda6dc8bc17",
    "type" : "region",
    "components" : [ ]
  }, {
    "regionName" : "content",
    "id" : "c3b0ca60-6715-4619-9304-02117000377e",
    "type" : "region",
    "components" : [ {
      "componentName" : "forceCommunity:richTextInline",
      "componentAttributes" : {
        "richTextValue" : "<div style=\"text-align: center;\">Invalid Page</div>"
      },
      "renderPriority" : "NEUTRAL",
      "renditionMap" : { },
      "id" : "abee898d-33f8-474f-8fca-804ef73974f3",
      "type" : "component",
      "renditions" : [ ]
    } ]
  }, {
    "regionName" : "footer",
    "id" : "69715050-0cd0-4b44-b26f-b09247eea2c6",
    "type" : "region",
    "components" : [ ]
  }, {
    "regionName" : "sfdcHiddenRegion",
    "id" : "eaf16be3-cc18-4211-9c69-bec51a3d1618",
    "type" : "region",
    "components" : [ {
      "componentName" : "forceCommunity:seoAssistant",
      "componentAttributes" : {
        "metaTags" : "",
        "description" : "",
        "title" : "Login Error"
      },
      "renderPriority" : "NEUTRAL",
      "renditionMap" : { },
      "id" : "cd950cfd-10da-47cc-a27d-dd41585b826d",
      "type" : "component",
      "renditions" : [ ]
    } ]
  } ]
}