{
  "themeLayoutType" : "Inner",
  "viewType" : "extrelated-quip",
  "appPageId" : "f864f8a4-36aa-420e-8da1-4667700e4718",
  "componentName" : "siteforce:sldsOneColLayout",
  "label" : "Quip Docs Related List",
  "id" : "7a817eda-b420-4d33-b22f-2b77e97b309b",
  "type" : "view",
  "regions" : [ {
    "regionName" : "header",
    "id" : "efda48ef-ce59-4b37-9e66-865a3171d92b",
    "type" : "region",
    "components" : [ ]
  }, {
    "regionName" : "content",
    "id" : "f859a573-f1fe-4247-9235-02b092125559",
    "type" : "region",
    "components" : [ {
      "componentName" : "forceCommunity:relatedQuipItemsView",
      "componentAttributes" : {
        "parentRecordId" : "{!recordId}"
      },
      "renderPriority" : "NEUTRAL",
      "renditionMap" : { },
      "id" : "b75a78c9-0962-469f-b2de-959f852c4ec0",
      "type" : "component",
      "renditions" : [ ]
    } ]
  }, {
    "regionName" : "footer",
    "id" : "c885af89-0e15-40a6-b129-fdd5a0c7f5f2",
    "type" : "region",
    "components" : [ ]
  }, {
    "regionName" : "sfdcHiddenRegion",
    "id" : "f61d1e3a-50f1-43cc-a13c-59b44c9abd2d",
    "type" : "region",
    "components" : [ {
      "componentName" : "forceCommunity:seoAssistant",
      "componentAttributes" : {
        "metaTags" : "",
        "description" : "",
        "title" : ""
      },
      "renderPriority" : "NEUTRAL",
      "renditionMap" : { },
      "id" : "24b6f0f4-66ff-4af0-b848-093937305787",
      "type" : "component",
      "renditions" : [ ]
    } ]
  } ]
}