{
  "themeLayoutType" : "Inner",
  "viewType" : "list",
  "appPageId" : "f864f8a4-36aa-420e-8da1-4667700e4718",
  "componentName" : "siteforce:sldsOneColLayout",
  "label" : "Record List",
  "id" : "6624985d-28a5-4e24-9727-2fb05ea90778",
  "type" : "view",
  "regions" : [ {
    "regionName" : "header",
    "id" : "4888612b-f47d-4495-ae6a-73a5c2db9578",
    "type" : "region",
    "components" : [ ]
  }, {
    "regionName" : "content",
    "id" : "a2e29f9b-9c5d-4108-ae53-1fc0c120f534",
    "type" : "region",
    "components" : [ {
      "componentName" : "forceCommunity:objectHome",
      "componentAttributes" : {
        "layout" : "FULL",
        "showDisplay" : "showall",
        "scope" : "{!objectName}",
        "showPinnedList" : "true",
        "showActionBar" : "true",
        "filterName" : "{!filterId}",
        "pageSize" : "25",
        "enableInlineEdit" : "true",
        "showSearchBar" : "true"
      },
      "renderPriority" : "NEUTRAL",
      "renditionMap" : { },
      "id" : "36b8c1fa-e781-4bdf-b75b-50a0a105af71",
      "type" : "component",
      "renditions" : [ ]
    } ]
  }, {
    "regionName" : "footer",
    "id" : "c8074b26-03ba-498c-8ed4-978cf31be2b0",
    "type" : "region",
    "components" : [ ]
  }, {
    "regionName" : "sfdcHiddenRegion",
    "id" : "b30a0def-882e-4d11-b5b6-09a3b3d1c5d0",
    "type" : "region",
    "components" : [ {
      "componentName" : "forceCommunity:seoAssistant",
      "componentAttributes" : {
        "metaTags" : "",
        "description" : "",
        "title" : ""
      },
      "renderPriority" : "NEUTRAL",
      "renditionMap" : { },
      "id" : "5d39ff93-1878-4492-a716-4cb42be01ce1",
      "type" : "component",
      "renditions" : [ ]
    } ]
  } ]
}