{
  "themeLayoutType" : "Inner",
  "viewType" : "topic",
  "appPageId" : "f864f8a4-36aa-420e-8da1-4667700e4718",
  "componentName" : "siteforce:sldsTwoCol84SidebarFeaturedLayout",
  "label" : "Topic Detail",
  "id" : "6a2ea503-a185-4883-9d5b-3654d47d82e0",
  "type" : "view",
  "regions" : [ {
    "regionName" : "header",
    "id" : "d5f0171d-e5f2-4317-820f-bddf09e9efa2",
    "type" : "region",
    "components" : [ {
      "componentName" : "forceCommunity:headline",
      "componentAttributes" : {
        "topicId" : "{!recordId}",
        "pageType" : "topic",
        "bannerTextWithKnowledge" : "Explore other <a href=\"javascript:void(0)\" class=\"headlineArticles\">articles</a> and <a href=\"javascript:void(0)\" class=\"headlineDiscussions\">discussions</a> on this topic.",
        "searchTerm" : "{!searchString}",
        "bannerTextWithoutKnowledge" : "Explore other <a href=\"javascript:void(0)\" class=\"headlineDiscussions\">discussions</a> on this topic.",
        "bannerText" : "",
        "title" : "Welcome!",
        "uniqueNameOrId" : "",
        "showSubTopics" : "true"
      },
      "renderPriority" : "NEUTRAL",
      "renditionMap" : { },
      "id" : "08f420f9-ae2d-48e0-9ced-e4fdef79bdc0",
      "type" : "component",
      "renditions" : [ ]
    } ]
  }, {
    "regionName" : "featured",
    "id" : "07c8abbf-8196-4b16-a44a-1d9ac9e64cf8",
    "type" : "region",
    "components" : [ {
      "componentName" : "forceCommunity:topicDescription",
      "componentAttributes" : {
        "topicId" : "{!recordId}",
        "title" : "Description"
      },
      "renderPriority" : "NEUTRAL",
      "renditionMap" : { },
      "id" : "de8ac469-0638-41b1-858e-fc5322c797b5",
      "type" : "component",
      "renditions" : [ ]
    }, {
      "componentName" : "forceCommunity:topicMetrics",
      "componentAttributes" : {
        "topicId" : "{!recordId}",
        "showArticles" : "true",
        "showFollowers" : "true",
        "showTalkingAbout" : "true",
        "showPosts" : "true"
      },
      "renderPriority" : "NEUTRAL",
      "renditionMap" : { },
      "id" : "240d1c2b-5a0a-4f41-8019-a032719ef81f",
      "type" : "component",
      "renditions" : [ ]
    }, {
      "componentName" : "forceCommunity:askCommunity",
      "componentAttributes" : {
        "uneditableTopics" : "false",
        "isAskFollowPromptEnabled" : "true",
        "buttonBorderColor" : "",
        "isIncludeArticlesEnabled" : "false",
        "isIncludeDiscussionsEnabled" : "true",
        "followUpPromptLabel" : "Can we close your question?",
        "label" : "Ask a Question",
        "buttonTextHoverColor" : "",
        "isInitialSatisfactionPromptEnabled" : "true",
        "buttonAlignment" : "center",
        "maxSuggestions" : "5",
        "buttonMaxWidth" : "100",
        "buttonBgHoverColor" : "",
        "buttonRadius" : "0",
        "satisfactionPromptLabel" : "Did we help to answer your question?",
        "showTopics" : "true",
        "buttonTextColor" : "",
        "isPublisherDeflectionEnabled" : "true",
        "buttonBgColor" : "",
        "showDetails" : "false",
        "confirmationMessage" : "Got it!"
      },
      "renderPriority" : "NEUTRAL",
      "renditionMap" : { },
      "id" : "b812a1dc-685f-48b8-9c67-5ec95afe8564",
      "type" : "component",
      "renditions" : [ ]
    }, {
      "componentName" : "forceCommunity:follow",
      "componentAttributes" : {
        "recordId" : "{!recordId}",
        "buttonAlignment" : "center",
        "buttonMaxWidth" : "100",
        "buttonBorderColor" : "",
        "showNotificationMenu" : "true",
        "buttonBgHoverColor" : "",
        "buttonRadius" : "0",
        "buttonTextColor" : "",
        "buttonTextHoverColor" : "",
        "buttonBgColor" : ""
      },
      "renderPriority" : "NEUTRAL",
      "renditionMap" : { },
      "id" : "8d6d269a-f81a-4ce9-9356-7ba4776f9703",
      "type" : "component",
      "renditions" : [ ]
    } ]
  }, {
    "regionName" : "content",
    "id" : "9b7e50dc-99a2-4e0b-afeb-57004f74ec48",
    "type" : "region",
    "components" : [ {
      "componentName" : "forceCommunity:resultsList",
      "componentAttributes" : {
        "topicId" : "{!recordId}",
        "articleTabLabel" : "Articles",
        "searchTerm" : "{!searchString}",
        "discussionTabLabel" : "Discussions",
        "showArticleTab" : "true",
        "articleListPageSize" : "10",
        "showCompactFeedInDiscussion" : "true",
        "defaultSortOrderCompactFeed" : "Relevance",
        "defaultSortOrderFullFeed" : "Relevance",
        "class" : "clean",
        "activeTab" : "{!selectedTab}"
      },
      "renderPriority" : "NEUTRAL",
      "renditionMap" : { },
      "id" : "560cc5d2-a605-49b9-91bf-20df7a6273cb",
      "type" : "component",
      "renditions" : [ ]
    } ]
  }, {
    "regionName" : "sidebar",
    "id" : "4e607309-3be0-410a-afe4-4c0d2d4b8cf1",
    "type" : "region",
    "components" : [ {
      "componentName" : "selfService:topicTrendingArticles42",
      "componentAttributes" : {
        "topicId" : "{!recordId}",
        "title" : "Trending Articles",
        "numberOfArticles" : "5"
      },
      "renderPriority" : "NEUTRAL",
      "renditionMap" : { },
      "id" : "8bf96702-1804-40f4-9754-6b526045cb94",
      "type" : "component",
      "renditions" : [ ]
    }, {
      "componentName" : "forceCommunity:relatedTopics",
      "componentAttributes" : {
        "topicId" : "{!recordId}",
        "title" : "Related Topics",
        "showTopicsMetric" : "true"
      },
      "renderPriority" : "NEUTRAL",
      "renditionMap" : { },
      "id" : "b8364063-b0a9-422c-a884-7084b2a18f30",
      "type" : "component",
      "renditions" : [ ]
    }, {
      "componentName" : "forceCommunity:knowledgeablePeople",
      "componentAttributes" : {
        "topicId" : "{!recordId}",
        "title" : "Knowledgeable People"
      },
      "renderPriority" : "NEUTRAL",
      "renditionMap" : { },
      "id" : "8cc70a91-d731-43c2-b30d-8de0803be55b",
      "type" : "component",
      "renditions" : [ ]
    } ]
  }, {
    "regionName" : "footer",
    "id" : "9666feff-c6a1-4d78-95ab-d58f713c6308",
    "type" : "region",
    "components" : [ {
      "componentName" : "siteforce:napiliFooter",
      "componentAttributes" : {
        "buttonBorderColor" : "",
        "buttonTwoBgHoverColor" : "",
        "contactSupportLabel" : "Contact Support",
        "buttonTextHoverColor" : "",
        "askCommunityLabel" : "Ask a Question",
        "buttonTwoBgColor" : "",
        "buttonTwoTextHoverColor" : "",
        "buttonBgHoverColor" : "",
        "satisfactionPromptLabel" : "Did we help to answer your question?",
        "showTopics" : "true",
        "buttonTextColor" : "",
        "isPublisherDeflectionEnabled" : "true",
        "buttonTwoBorderColor" : "",
        "isAskFollowPromptEnabled" : "true",
        "isIncludeArticlesEnabled" : "false",
        "isIncludeDiscussionsEnabled" : "true",
        "headerLabel" : "Don't see what you're looking for?",
        "buttonTwoTextColor" : "",
        "followUpPromptLabel" : "Can we close your question?",
        "isInitialSatisfactionPromptEnabled" : "true",
        "maxSuggestions" : "5",
        "buttonTwoRadius" : "0",
        "buttonRadius" : "0",
        "buttonBgColor" : "",
        "showDetails" : "false",
        "confirmationMessage" : "Got it!"
      },
      "renderPriority" : "NEUTRAL",
      "renditionMap" : { },
      "id" : "16ff2d6c-c852-4a69-b80a-496ef2dd0a5c",
      "type" : "component",
      "renditions" : [ ]
    } ]
  }, {
    "regionName" : "sfdcHiddenRegion",
    "id" : "985cd096-757e-4773-b59c-d488656de3b5",
    "type" : "region",
    "components" : [ {
      "componentName" : "forceCommunity:seoAssistant",
      "componentAttributes" : {
        "metaTags" : "",
        "description" : "{!Record.Description}",
        "title" : "{!Record._Title}"
      },
      "renderPriority" : "NEUTRAL",
      "renditionMap" : { },
      "id" : "e70a4fb3-63a4-4914-921a-818d327b193c",
      "type" : "component",
      "renditions" : [ ]
    } ]
  } ]
}