{
  "themeLayoutType" : "Inner",
  "viewType" : "topic-catalog",
  "appPageId" : "f864f8a4-36aa-420e-8da1-4667700e4718",
  "componentName" : "siteforce:sldsOneColLayout",
  "label" : "Topic Catalog",
  "id" : "1208b98f-4385-483c-95e0-2f169c028214",
  "type" : "view",
  "regions" : [ {
    "regionName" : "header",
    "id" : "19493180-de49-40c8-9e01-786dc4e0b74d",
    "type" : "region",
    "components" : [ {
      "componentName" : "forceCommunity:headline",
      "componentAttributes" : {
        "topicId" : "{!topicId}",
        "pageType" : "",
        "bannerTextWithKnowledge" : "Explore other <a href=\"javascript:void(0)\" class=\"headlineArticles\">articles</a> and <a href=\"javascript:void(0)\" class=\"headlineDiscussions\">discussions</a> on this topic.",
        "searchTerm" : "{!searchString}",
        "bannerTextWithoutKnowledge" : "Explore other <a href=\"javascript:void(0)\" class=\"headlineDiscussions\">discussions</a> on this topic.",
        "bannerText" : "",
        "title" : "Topics",
        "uniqueNameOrId" : "",
        "showSubTopics" : "true"
      },
      "renderPriority" : "NEUTRAL",
      "renditionMap" : { },
      "id" : "91b22892-7dc5-41ea-acd6-3af55dc31515",
      "type" : "component",
      "renditions" : [ ]
    } ]
  }, {
    "regionName" : "content",
    "id" : "c336ee0f-e2de-4a3c-ab97-41ea1b1c2292",
    "type" : "region",
    "components" : [ {
      "componentName" : "forceCommunity:topicCatalog",
      "componentAttributes" : { },
      "renderPriority" : "NEUTRAL",
      "renditionMap" : { },
      "id" : "b14d99b3-beeb-448f-979c-43fb461b9bbb",
      "type" : "component",
      "renditions" : [ ]
    } ]
  }, {
    "regionName" : "footer",
    "id" : "18882fa8-caec-484f-a9c5-5888b9f7b975",
    "type" : "region",
    "components" : [ {
      "componentName" : "siteforce:napiliFooter",
      "componentAttributes" : {
        "buttonBorderColor" : "",
        "buttonTwoBgHoverColor" : "",
        "contactSupportLabel" : "Contact Support",
        "buttonTextHoverColor" : "",
        "askCommunityLabel" : "Ask a Question",
        "buttonTwoBgColor" : "",
        "buttonTwoTextHoverColor" : "",
        "buttonBgHoverColor" : "",
        "satisfactionPromptLabel" : "Did we help to answer your question?",
        "showTopics" : "true",
        "buttonTextColor" : "",
        "isPublisherDeflectionEnabled" : "true",
        "buttonTwoBorderColor" : "",
        "isAskFollowPromptEnabled" : "true",
        "isIncludeArticlesEnabled" : "false",
        "isIncludeDiscussionsEnabled" : "true",
        "headerLabel" : "Don't see what you're looking for?",
        "buttonTwoTextColor" : "",
        "followUpPromptLabel" : "Can we close your question?",
        "isInitialSatisfactionPromptEnabled" : "true",
        "maxSuggestions" : "5",
        "buttonTwoRadius" : "0",
        "buttonRadius" : "0",
        "buttonBgColor" : "",
        "showDetails" : "false",
        "confirmationMessage" : "Got it!"
      },
      "renderPriority" : "NEUTRAL",
      "renditionMap" : { },
      "id" : "0674aa05-105a-4dc2-9259-6f00e5b2668c",
      "type" : "component",
      "renditions" : [ ]
    } ]
  }, {
    "regionName" : "sfdcHiddenRegion",
    "id" : "42790638-508e-4848-9ab0-828a7f0d3014",
    "type" : "region",
    "components" : [ {
      "componentName" : "forceCommunity:seoAssistant",
      "componentAttributes" : {
        "metaTags" : "",
        "description" : "",
        "title" : "Topic Catalog"
      },
      "renderPriority" : "NEUTRAL",
      "renditionMap" : { },
      "id" : "e4450b80-ce4b-4926-bbc7-35245d557336",
      "type" : "component",
      "renditions" : [ ]
    } ]
  } ]
}