{
  "themeLayoutType" : "Inner",
  "viewType" : "detail-005",
  "appPageId" : "f864f8a4-36aa-420e-8da1-4667700e4718",
  "componentName" : "siteforce:sldsOneColLayout",
  "label" : "User Profile",
  "id" : "f47466f8-1f9b-4387-a820-f6e25d9f0bb9",
  "type" : "view",
  "regions" : [ {
    "regionName" : "header",
    "id" : "49123e1e-2436-4e41-a93c-61f23d3b3894",
    "type" : "region",
    "components" : [ ]
  }, {
    "regionName" : "content",
    "id" : "a294cd28-528f-4234-aef5-6bf95cd51982",
    "type" : "region",
    "components" : [ {
      "componentName" : "forceCommunity:userRecordHome",
      "componentAttributes" : {
        "maxTopics" : "5",
        "showFullPhotoAsCircle" : "true",
        "showKnowledgeableAbout" : "true",
        "detailsTabLabel" : "Details",
        "userBadgesTitle" : "Recognition Badges",
        "showStats" : "true",
        "showRelatedList" : "true",
        "casesTabLabel" : "Cases",
        "userStatsTitle" : "Influence",
        "caseHeaderLabel" : "My Cases",
        "userId" : "{!recordId}",
        "showAllUpdates" : "false",
        "relatedTabLabel" : "Related",
        "feedTabLabel" : "Feed",
        "showBadges" : "true",
        "caseCreateLabel" : "Create Case",
        "caseFilterName" : "AllOpenCases",
        "showReputationInInfluenceCard" : "false",
        "knowledgeableAboutTitle" : "Knows About",
        "recognitionbuttonLabel" : "Give"
      },
      "renderPriority" : "NEUTRAL",
      "renditionMap" : { },
      "id" : "8ba45ea1-0141-428e-8ece-79e9937ed990",
      "type" : "component",
      "renditions" : [ ]
    } ]
  }, {
    "regionName" : "footer",
    "id" : "93ad524f-d9bd-4c3e-967f-bd7249b4354a",
    "type" : "region",
    "components" : [ ]
  }, {
    "regionName" : "sfdcHiddenRegion",
    "id" : "0aea606b-55ec-4522-847a-d4e17e9c784d",
    "type" : "region",
    "components" : [ {
      "componentName" : "forceCommunity:seoAssistant",
      "componentAttributes" : {
        "metaTags" : "",
        "description" : "",
        "title" : ""
      },
      "renderPriority" : "NEUTRAL",
      "renditionMap" : { },
      "id" : "de3ae099-3e28-45a0-a738-a5b8912431ad",
      "type" : "component",
      "renditions" : [ ]
    } ]
  } ]
}