{
  "urlPrefix" : "case",
  "appPageId" : "361c3087-f299-487a-9a1a-1bfb390b4425",
  "routeType" : "detail-500",
  "pageAccess" : "UseParent",
  "label" : "Case Detail",
  "id" : "30756634-0e05-4709-a0c0-69f5a024ab94",
  "type" : "route"
}