{
  "urlPrefix" : "CheckPasswordResetEmail",
  "appPageId" : "f36207a5-73bd-49df-bfe2-af704f9c06c9",
  "routeType" : "check-password",
  "pageAccess" : "UseParent",
  "label" : "Check Password",
  "id" : "0beab41e-aadd-4873-b1ad-6b187e0433bb",
  "type" : "route"
}