{
  "urlPrefix" : "contactsupport",
  "appPageId" : "361c3087-f299-487a-9a1a-1bfb390b4425",
  "routeType" : "contactsupport",
  "pageAccess" : "UseParent",
  "label" : "Contact Support",
  "id" : "7be7c263-e90c-4b33-911c-05e2b0de3ef7",
  "type" : "route"
}