{
  "urlPrefix" : "error",
  "appPageId" : "361c3087-f299-487a-9a1a-1bfb390b4425",
  "routeType" : "error",
  "pageAccess" : "UseParent",
  "label" : "Error",
  "id" : "e8e35964-3290-4321-93ac-5e27e081e427",
  "type" : "route"
}