{
  "urlPrefix" : "contentdocument",
  "appPageId" : "361c3087-f299-487a-9a1a-1bfb390b4425",
  "routeType" : "detail-069",
  "pageAccess" : "UseParent",
  "label" : "File Detail",
  "id" : "75d86834-b784-477c-9ae2-820428b5afa4",
  "type" : "route"
}