{
  "urlPrefix" : "group",
  "appPageId" : "361c3087-f299-487a-9a1a-1bfb390b4425",
  "routeType" : "list-0F9",
  "pageAccess" : "UseParent",
  "label" : "Group List",
  "id" : "8bbc78b5-5227-4f61-b5bf-f14fb450c7c2",
  "type" : "route"
}