{
  "urlPrefix" : "report",
  "appPageId" : "361c3087-f299-487a-9a1a-1bfb390b4425",
  "routeType" : "list-00O",
  "pageAccess" : "UseParent",
  "label" : "Report List",
  "id" : "1d0766fa-09c9-4589-9604-6179bc516cb2",
  "type" : "route"
}