{
  "urlPrefix" : "sfdcpage",
  "appPageId" : "361c3087-f299-487a-9a1a-1bfb390b4425",
  "routeType" : "sfdcpage",
  "pageAccess" : "UseParent",
  "label" : "Sfdc Page",
  "id" : "f49f28f0-4e12-402d-9e99-6c6b240ea41c",
  "type" : "route"
}