{
  "urlPrefix" : "toparticles",
  "appPageId" : "361c3087-f299-487a-9a1a-1bfb390b4425",
  "routeType" : "top-articles",
  "pageAccess" : "UseParent",
  "label" : "Top Articles",
  "id" : "8a47732c-01a5-4487-b42c-581c8b927dad",
  "type" : "route"
}