{
  "urlPrefix" : "profile",
  "appPageId" : "361c3087-f299-487a-9a1a-1bfb390b4425",
  "routeType" : "list-005",
  "pageAccess" : "UseParent",
  "label" : "User List",
  "id" : "ce88342e-48f4-4540-8c87-bac18f87c2fa",
  "type" : "route"
}