{
  "isAvailableToGuests" : false,
  "isFilteredComponentsView" : false,
  "mainAppPageId" : "361c3087-f299-487a-9a1a-1bfb390b4425",
  "loginAppPageId" : "f36207a5-73bd-49df-bfe2-af704f9c06c9",
  "selfRegistrationRouteId" : "9812a8cb-6198-4986-a8ad-f9fac3ad0a26",
  "forgotPasswordRouteId" : "727a5ad6-c5ad-4c45-8635-5db3e82e2bdb",
  "isProgressiveRenderingEnabled" : false,
  "preferredDomainId" : "none",
  "type" : "site"
}