{
  "developerName" : "service",
  "layouts" : {
    "Login" : "66bad77e-38ed-402f-8aab-3e4bcdddceb8",
    "Inner" : "7d82e5e8-37b3-476f-a808-9bdaa145c9c3"
  },
  "customCSS" : "",
  "activeBrandingSetId" : "95779790-0767-4687-83a6-95c1f0912ce4",
  "label" : "Customer Service",
  "id" : "a57952da-cba2-4f44-b3fb-87cab3cb47a6",
  "type" : "theme",
  "views" : [ {
    "componentName" : "salesforceIdentity:loginBody2",
    "label" : "Login",
    "id" : "66bad77e-38ed-402f-8aab-3e4bcdddceb8",
    "type" : "view",
    "regions" : [ {
      "regionName" : "header",
      "id" : "c9c90afa-758e-4008-801a-399bfa3a3c53",
      "type" : "region",
      "components" : [ ]
    }, {
      "regionName" : "content",
      "id" : "630b925d-d437-4b24-a9d5-5c82acb37bb2",
      "type" : "region",
      "components" : [ ]
    }, {
      "regionName" : "footer",
      "id" : "de13d66c-33f1-4221-abb1-d36a9ff5c15b",
      "type" : "region",
      "components" : [ ]
    } ]
  }, {
    "componentName" : "siteforce:serviceBody",
    "label" : "Default",
    "id" : "7d82e5e8-37b3-476f-a808-9bdaa145c9c3",
    "type" : "view",
    "regions" : [ {
      "regionName" : "customHeader",
      "id" : "ab7371bf-933a-4e39-a5e3-a79f49fb83ec",
      "type" : "region",
      "components" : [ ]
    }, {
      "regionName" : "search",
      "id" : "9d1b9e06-0846-4f46-aeb5-c2db9fa82bf2",
      "type" : "region",
      "components" : [ {
        "componentName" : "forceCommunity:searchBox",
        "componentAttributes" : {
          "enableAutocomplete" : "true",
          "crossObjectTypeaheadApiNames" : "[{\"name\":\"KnowledgeArticleVersion\",\"isPublic\":true},{\"name\":\"FeedItem\",\"isPublic\":true},{\"name\":\"Case\",\"isPublic\":false},{\"name\":\"CollaborationGroup\",\"isPublic\":true}]",
          "continueLabel" : "Don’t see it?",
          "showContinueAction" : "true",
          "contineActionLabel" : "Ask the community",
          "maxNumberOfResults" : "6",
          "signInActionLabel" : "Sign in to ask the community",
          "questionResultsFirst" : "false",
          "placeholder" : "Search...",
          "showTopics" : "true",
          "disableCrossObjectRelevance" : "false",
          "showDetails" : "false"
        },
        "renderPriority" : "NEUTRAL",
        "renditionMap" : { },
        "id" : "e28239af-d61b-4330-859c-f96772102e46",
        "type" : "component",
        "renditions" : [ ]
      } ]
    }, {
      "regionName" : "profileMenu",
      "id" : "904a3488-1fa7-4b47-bc8d-a139909fb172",
      "type" : "region",
      "components" : [ {
        "componentName" : "selfService:userProfileMenu",
        "componentAttributes" : {
          "userSettingsLabel" : "My Settings",
          "includeContactSupport" : "true",
          "accountManagementLabel" : "Account Management",
          "showAccountManagement" : "false",
          "filterName" : "MyCases",
          "communitySetupLabel" : "Community Setup",
          "loginLabel" : "Login",
          "contactSupportLabel" : "Contact Support",
          "logoutLabel" : "Logout",
          "showUserSettings" : "true",
          "myAccountLabel" : "My Account",
          "homeLabel" : "Home",
          "includeMessages" : "false",
          "communityBuilderLabel" : "Community Builder",
          "viewProfileLabel" : "My Profile"
        },
        "renderPriority" : "NEUTRAL",
        "renditionMap" : { },
        "id" : "9dc18d6a-e0f2-4baf-86ae-0ec64ddceea6",
        "type" : "component",
        "renditions" : [ ]
      } ]
    }, {
      "regionName" : "navBar",
      "id" : "37c8109e-a55e-4631-b527-d1b39d2f154d",
      "type" : "region",
      "components" : [ {
        "componentName" : "forceCommunity:globalNavigation",
        "componentAttributes" : {
          "NavigationMenuEditorRefresh" : "",
          "hideAppLauncher" : "false",
          "hideHomeText" : "false"
        },
        "renderPriority" : "NEUTRAL",
        "renditionMap" : { },
        "id" : "cd86ebe9-5b7f-45f4-9843-4289de44cd35",
        "type" : "component",
        "renditions" : [ ]
      } ]
    }, {
      "regionName" : "customRegion",
      "id" : "a8c81dcd-6e2b-43f9-ba98-d009cc97edcd",
      "type" : "region",
      "components" : [ ]
    }, {
      "regionName" : "footer",
      "id" : "11ef4479-aa1b-4a23-b87e-e95775b74ad8",
      "type" : "region",
      "components" : [ ]
    } ]
  } ]
}