{
  "headMarkup" : null,
  "isRelaxedCSPLevel" : false,
  "templateName" : "Service Community Template",
  "cmsSettings" : { },
  "currentThemeId" : "a5dbf40f-6f8b-4784-a241-0228993e0d0b",
  "label" : "main",
  "id" : "1df13a06-cd43-4a80-8668-bc927ea97379",
  "type" : "appPage"
}