{
  "values" : {
    "_desktopFontSizeXxLarge" : "1.75rem",
    "_desktopFontSizeMedium" : "0.8125rem",
    "TextTransformStyle" : "uppercase",
    "BorderColor" : "rgb(61, 131, 72)",
    "DetailTextColor" : "rgb(242, 40, 218)",
    "_desktopFontSizeMediumA" : "0.875rem",
    "HeaderFonts" : "Montserrat",
    "CardBackgroundColor" : "rgba(255, 255, 255, 0)",
    "LoginBackgroundColor" : "#F4F4F4",
    "_ActionColorTrans" : "rgba(208, 33, 106, 0.9)",
    "LoginBackgroundImage" : "../../../../sfsites/picasso/core/external/salesforceIdentity/images/background.jpg?v=1",
    "PageBackgroundColor" : "rgb(224, 191, 231)",
    "brandNavigationColorText" : "#FFFFFF",
    "_desktopFontSizeXLarge" : "1.25rem",
    "TextColor" : "rgb(29, 173, 235)",
    "_desktopFontSizeSmall" : "0.75rem",
    "_ColorBackgroundTransparent" : "rgba(255, 255, 255, 0.0)",
    "_brandNavigationBarBackgroundColor" : "rgba(128,128,128,.75)",
    "HeaderImage" : "/file-asset/header?v=1",
    "_OverlayTextColorShadow" : "#888",
    "_desktopFontSizeLarge" : "1rem",
    "ActionColor" : "rgb(208, 33, 106)",
    "_ColorBackgroundWhite" : "#FFFFFF",
    "CompanyLogo" : "",
    "brandNavigationBarBackgroundColor" : "rgba(128,128,128,.75)",
    "_LinkColorDarker" : "#971ec1",
    "_ActionColorDarker" : "#a41a54",
    "_desktopSquareIconMedium" : "2rem",
    "_brandNavigationItemBackgroundColorHover" : "rgba(0,0,0,.2)",
    "_HoverColor" : "rgba(208, 33, 106, 0.05)",
    "_desktopLineHeightText" : "1.5",
    "ErrorFontColor" : "#ff9e9e",
    "OverlayTextColor" : "rgb(244, 25, 25)",
    "brandNavigationBackgroundColor" : "rgb(128,128,128)",
    "PrimaryFont" : "Lato",
    "LinkColor" : "rgb(175, 42, 222)",
    "_brandNavigationItemDividerColor" : "rgba(255, 255, 255, 0.2)"
  },
  "definitionName" : "service:branding-service",
  "label" : "Customer Service",
  "id" : "35ca7fae-4dce-4d1a-ae05-b3348cb4ab11",
  "type" : "brandingSet"
}